%!PS-Adobe-2.0 EPSF-2.0
%%Title: 121phasc_sw.eps
%%Creator: fig2dev Version 3.2 Patchlevel 1
%%CreationDate: Thu Mar  1 10:50:04 2001
%%For: holle@ibis (Holger Class,IWS Abt. 2,4739)
%%Orientation: Portrait
%%BoundingBox: 0 0 440 340
%%Pages: 0
%%BeginSetup
%%EndSetup
%%Magnification: 1.0000
%%EndComments
/$F2psDict 200 dict def
$F2psDict begin
$F2psDict /mtrx matrix put
/col-1 {0 setgray} bind def
/col0 {0.000 0.000 0.000 srgb} bind def
/col1 {0.000 0.000 1.000 srgb} bind def
/col2 {0.000 1.000 0.000 srgb} bind def
/col3 {0.000 1.000 1.000 srgb} bind def
/col4 {1.000 0.000 0.000 srgb} bind def
/col5 {1.000 0.000 1.000 srgb} bind def
/col6 {1.000 1.000 0.000 srgb} bind def
/col7 {1.000 1.000 1.000 srgb} bind def
/col8 {0.000 0.000 0.560 srgb} bind def
/col9 {0.000 0.000 0.690 srgb} bind def
/col10 {0.000 0.000 0.820 srgb} bind def
/col11 {0.530 0.810 1.000 srgb} bind def
/col12 {0.000 0.560 0.000 srgb} bind def
/col13 {0.000 0.690 0.000 srgb} bind def
/col14 {0.000 0.820 0.000 srgb} bind def
/col15 {0.000 0.560 0.560 srgb} bind def
/col16 {0.000 0.690 0.690 srgb} bind def
/col17 {0.000 0.820 0.820 srgb} bind def
/col18 {0.560 0.000 0.000 srgb} bind def
/col19 {0.690 0.000 0.000 srgb} bind def
/col20 {0.820 0.000 0.000 srgb} bind def
/col21 {0.560 0.000 0.560 srgb} bind def
/col22 {0.690 0.000 0.690 srgb} bind def
/col23 {0.820 0.000 0.820 srgb} bind def
/col24 {0.500 0.190 0.000 srgb} bind def
/col25 {0.630 0.250 0.000 srgb} bind def
/col26 {0.750 0.380 0.000 srgb} bind def
/col27 {1.000 0.500 0.500 srgb} bind def
/col28 {1.000 0.630 0.630 srgb} bind def
/col29 {1.000 0.750 0.750 srgb} bind def
/col30 {1.000 0.880 0.880 srgb} bind def
/col31 {1.000 0.840 0.000 srgb} bind def

end
save
-17.0 355.0 translate
1 -1 scale

/cp {closepath} bind def
/ef {eofill} bind def
/gr {grestore} bind def
/gs {gsave} bind def
/sa {save} bind def
/rs {restore} bind def
/l {lineto} bind def
/m {moveto} bind def
/rm {rmoveto} bind def
/n {newpath} bind def
/s {stroke} bind def
/sh {show} bind def
/slc {setlinecap} bind def
/slj {setlinejoin} bind def
/slw {setlinewidth} bind def
/srgb {setrgbcolor} bind def
/rot {rotate} bind def
/sc {scale} bind def
/sd {setdash} bind def
/ff {findfont} bind def
/sf {setfont} bind def
/scf {scalefont} bind def
/sw {stringwidth} bind def
/tr {translate} bind def
/tnt {dup dup currentrgbcolor
  4 -2 roll dup 1 exch sub 3 -1 roll mul add
  4 -2 roll dup 1 exch sub 3 -1 roll mul add
  4 -2 roll dup 1 exch sub 3 -1 roll mul add srgb}
  bind def
/shd {dup dup currentrgbcolor 4 -2 roll mul 4 -2 roll mul
  4 -2 roll mul srgb} bind def
/reencdict 12 dict def /ReEncode { reencdict begin
/newcodesandnames exch def /newfontname exch def /basefontname exch def
/basefontdict basefontname findfont def /newfont basefontdict maxlength dict def
basefontdict { exch dup /FID ne { dup /Encoding eq
{ exch dup length array copy newfont 3 1 roll put }
{ exch newfont 3 1 roll put } ifelse } { pop pop } ifelse } forall
newfont /FontName newfontname put newcodesandnames aload pop
128 1 255 { newfont /Encoding get exch /.notdef put } for
newcodesandnames length 2 idiv { newfont /Encoding get 3 1 roll put } repeat
newfontname newfont definefont pop end } def
/isovec [
8#200 /grave 8#201 /acute 8#202 /circumflex 8#203 /tilde
8#204 /macron 8#205 /breve 8#206 /dotaccent 8#207 /dieresis
8#210 /ring 8#211 /cedilla 8#212 /hungarumlaut 8#213 /ogonek 8#214 /caron
8#220 /dotlessi 8#230 /oe 8#231 /OE
8#240 /space 8#241 /exclamdown 8#242 /cent 8#243 /sterling
8#244 /currency 8#245 /yen 8#246 /brokenbar 8#247 /section 8#250 /dieresis
8#251 /copyright 8#252 /ordfeminine 8#253 /guillemotleft 8#254 /logicalnot
8#255 /endash 8#256 /registered 8#257 /macron 8#260 /degree 8#261 /plusminus
8#262 /twosuperior 8#263 /threesuperior 8#264 /acute 8#265 /mu 8#266 /paragraph
8#267 /periodcentered 8#270 /cedilla 8#271 /onesuperior 8#272 /ordmasculine
8#273 /guillemotright 8#274 /onequarter 8#275 /onehalf
8#276 /threequarters 8#277 /questiondown 8#300 /Agrave 8#301 /Aacute
8#302 /Acircumflex 8#303 /Atilde 8#304 /Adieresis 8#305 /Aring
8#306 /AE 8#307 /Ccedilla 8#310 /Egrave 8#311 /Eacute
8#312 /Ecircumflex 8#313 /Edieresis 8#314 /Igrave 8#315 /Iacute
8#316 /Icircumflex 8#317 /Idieresis 8#320 /Eth 8#321 /Ntilde 8#322 /Ograve
8#323 /Oacute 8#324 /Ocircumflex 8#325 /Otilde 8#326 /Odieresis 8#327 /multiply
8#330 /Oslash 8#331 /Ugrave 8#332 /Uacute 8#333 /Ucircumflex
8#334 /Udieresis 8#335 /Yacute 8#336 /Thorn 8#337 /germandbls 8#340 /agrave
8#341 /aacute 8#342 /acircumflex 8#343 /atilde 8#344 /adieresis 8#345 /aring
8#346 /ae 8#347 /ccedilla 8#350 /egrave 8#351 /eacute
8#352 /ecircumflex 8#353 /edieresis 8#354 /igrave 8#355 /iacute
8#356 /icircumflex 8#357 /idieresis 8#360 /eth 8#361 /ntilde 8#362 /ograve
8#363 /oacute 8#364 /ocircumflex 8#365 /otilde 8#366 /odieresis 8#367 /divide
8#370 /oslash 8#371 /ugrave 8#372 /uacute 8#373 /ucircumflex
8#374 /udieresis 8#375 /yacute 8#376 /thorn 8#377 /ydieresis] def
/Helvetica-Bold /Helvetica-Bold-iso isovec ReEncode
 /DrawEllipse {
	/endangle exch def
	/startangle exch def
	/yrad exch def
	/xrad exch def
	/y exch def
	/x exch def
	/savematrix mtrx currentmatrix def
	x y tr xrad yrad sc 0 0 1 startangle endangle arc
	closepath
	savematrix setmatrix
	} def

/$F2psBegin {$F2psDict begin /$F2psEnteredState save def} def
/$F2psEnd {$F2psEnteredState restore end} def
%%EndProlog

$F2psBegin
10 setmiterlimit
n -1000 6625 m -1000 -1000 l 8241 -1000 l 8241 6625 l cp clip
 0.06299 0.06299 sc
% Polyline
7.500 slw
n 7229 681 m 6794 681 l 6119 681 l 6119 531 l 5594 1056 l 6119 1506 l
 6119 1356 l 7229 1356 l 7229 681 l  cp gs 0.70 setgray ef gr gs col-1 s gr 
% Polyline
0.000 slw
n 6000 900 m 5895 900 5895 1020 105 arcto 4 {pop} repeat
  5895 1125 6915 1125 105 arcto 4 {pop} repeat
  7020 1125 7020 1005 105 arcto 4 {pop} repeat
  7020 900 6000 900 105 arcto 4 {pop} repeat
 cp gs col7 1.00 shd ef gr 
% Polyline
7.500 slw
n 676 3646 m 2386 3646 l 2386 4321 l 676 4321 l cp gs 0.90 setgray ef gr gs col-1 s gr 
% Polyline
0.000 slw
n 2386 3646 m 2521 3646 l 2521 4321 l 2386 4321 l cp gs 0.90 setgray ef gr 
% Polyline
n 2656 3647 m 2791 3647 l 2791 4322 l 2656 4322 l cp gs 0.85 setgray ef gr 
% Polyline
n 2791 3647 m 2926 3647 l 2926 4322 l 2791 4322 l cp gs 0.80 setgray ef gr 
% Polyline
n 2926 3647 m 3061 3647 l 3061 4322 l 2926 4322 l cp gs 0.80 setgray ef gr 
% Polyline
n 3061 3647 m 3196 3647 l 3196 4322 l 3061 4322 l cp gs 0.75 setgray ef gr 
% Polyline
n 3196 3647 m 3331 3647 l 3331 4322 l 3196 4322 l cp gs 0.75 setgray ef gr 
% Polyline
n 3331 3647 m 3466 3647 l 3466 4322 l 3331 4322 l cp gs 0.70 setgray ef gr 
% Polyline
n 3466 3647 m 3601 3647 l 3601 4322 l 3466 4322 l cp gs 0.70 setgray ef gr 
% Polyline
n 3601 3647 m 3736 3647 l 3736 4322 l 3601 4322 l cp gs 0.65 setgray ef gr 
% Polyline
n 3736 3647 m 3871 3647 l 3871 4322 l 3736 4322 l cp gs 0.65 setgray ef gr 
% Polyline
n 3871 3647 m 4006 3647 l 4006 4322 l 3871 4322 l cp gs 0.60 setgray ef gr 
% Polyline
n 4006 3647 m 4141 3647 l 4141 4322 l 4006 4322 l cp gs 0.60 setgray ef gr 
% Polyline
n 4141 3647 m 4276 3647 l 4276 4322 l 4141 4322 l cp gs 0.55 setgray ef gr 
% Polyline
n 2521 3646 m 2656 3646 l 2656 4321 l 2521 4321 l cp gs 0.85 setgray ef gr 
% Polyline
7.500 slw
n 675 3645 m 6525 3645 l 6525 4320 l 675 4320 l cp gs col0 s gr 
% Polyline
0.000 slw
n 4276 3647 m 4411 3647 l 4411 4322 l 4276 4322 l cp gs 0.55 setgray ef gr 
% Polyline
n 4411 3647 m 4546 3647 l 4546 4322 l 4411 4322 l cp gs 0.50 setgray ef gr 
% Polyline
n 4546 3647 m 4681 3647 l 4681 4322 l 4546 4322 l cp gs 0.50 setgray ef gr 
% Polyline
n 4681 3647 m 4816 3647 l 4816 4322 l 4681 4322 l cp gs 0.45 setgray ef gr 
% Polyline
n 4816 3647 m 4951 3647 l 4951 4322 l 4816 4322 l cp gs 0.45 setgray ef gr 
7.500 slw
% Ellipse
n 2160 3780 45 15 0 360 DrawEllipse gs 0.25 setgray ef gr gs col-1 s gr

% Ellipse
n 2025 3780 45 15 0 360 DrawEllipse gs 0.25 setgray ef gr gs col-1 s gr

% Ellipse
n 1980 3825 45 15 0 360 DrawEllipse gs 0.25 setgray ef gr gs col-1 s gr

% Ellipse
n 1800 3780 45 15 0 360 DrawEllipse gs 0.25 setgray ef gr gs col-1 s gr

% Ellipse
n 1710 3825 45 15 0 360 DrawEllipse gs 0.25 setgray ef gr gs col-1 s gr

% Ellipse
n 1575 3780 45 15 0 360 DrawEllipse gs 0.25 setgray ef gr gs col-1 s gr

% Ellipse
n 1350 3825 45 15 0 360 DrawEllipse gs 0.25 setgray ef gr gs col-1 s gr

% Ellipse
n 1260 3735 45 15 0 360 DrawEllipse gs 0.25 setgray ef gr gs col-1 s gr

% Ellipse
n 945 3825 45 15 0 360 DrawEllipse gs 0.25 setgray ef gr gs col-1 s gr

% Ellipse
n 945 3735 45 15 0 360 DrawEllipse gs 0.25 setgray ef gr gs col-1 s gr

% Ellipse
n 1080 3825 45 15 0 360 DrawEllipse gs 0.25 setgray ef gr gs col-1 s gr

% Ellipse
n 1260 3870 45 15 0 360 DrawEllipse gs 0.25 setgray ef gr gs col-1 s gr

% Ellipse
n 1395 3915 45 15 0 360 DrawEllipse gs 0.25 setgray ef gr gs col-1 s gr

% Ellipse
n 1530 3915 45 15 0 360 DrawEllipse gs 0.25 setgray ef gr gs col-1 s gr

% Ellipse
n 1620 3960 45 15 0 360 DrawEllipse gs 0.25 setgray ef gr gs col-1 s gr

% Ellipse
n 1755 3960 45 15 0 360 DrawEllipse gs 0.25 setgray ef gr gs col-1 s gr

% Ellipse
n 990 3960 45 15 0 360 DrawEllipse gs 0.25 setgray ef gr gs col-1 s gr

% Ellipse
n 1215 4050 45 15 0 360 DrawEllipse gs 0.25 setgray ef gr gs col-1 s gr

% Ellipse
n 1440 4095 45 15 0 360 DrawEllipse gs 0.25 setgray ef gr gs col-1 s gr

% Ellipse
n 1755 4140 45 15 0 360 DrawEllipse gs 0.25 setgray ef gr gs col-1 s gr

% Ellipse
n 1980 3960 45 15 0 360 DrawEllipse gs 0.25 setgray ef gr gs col-1 s gr

% Ellipse
n 2025 4095 45 15 0 360 DrawEllipse gs 0.25 setgray ef gr gs col-1 s gr

% Ellipse
n 1890 4185 45 15 0 360 DrawEllipse gs 0.25 setgray ef gr gs col-1 s gr

% Ellipse
n 1530 4230 45 15 0 360 DrawEllipse gs 0.25 setgray ef gr gs col-1 s gr

% Ellipse
n 1215 4230 45 15 0 360 DrawEllipse gs 0.25 setgray ef gr gs col-1 s gr

% Ellipse
n 810 4140 45 15 0 360 DrawEllipse gs 0.25 setgray ef gr gs col-1 s gr

% Ellipse
n 1035 4185 45 15 0 360 DrawEllipse gs 0.25 setgray ef gr gs col-1 s gr

% Ellipse
n 855 3960 45 15 0 360 DrawEllipse gs 0.25 setgray ef gr gs col-1 s gr

% Ellipse
n 765 3870 45 15 0 360 DrawEllipse gs 0.25 setgray ef gr gs col-1 s gr

% Ellipse
n 990 4095 45 15 0 360 DrawEllipse gs 0.25 setgray ef gr gs col-1 s gr

% Ellipse
n 3465 3735 45 15 0 360 DrawEllipse gs 0.25 setgray ef gr gs col-1 s gr

% Ellipse
n 3330 3735 45 15 0 360 DrawEllipse gs 0.25 setgray ef gr gs col-1 s gr

% Ellipse
n 3285 3780 45 15 0 360 DrawEllipse gs 0.25 setgray ef gr gs col-1 s gr

% Ellipse
n 3105 3735 45 15 0 360 DrawEllipse gs 0.25 setgray ef gr gs col-1 s gr

% Ellipse
n 3015 3780 45 15 0 360 DrawEllipse gs 0.25 setgray ef gr gs col-1 s gr

% Ellipse
n 2880 3735 45 15 0 360 DrawEllipse gs 0.25 setgray ef gr gs col-1 s gr

% Ellipse
n 2655 3780 45 15 0 360 DrawEllipse gs 0.25 setgray ef gr gs col-1 s gr

% Ellipse
n 2565 3690 45 15 0 360 DrawEllipse gs 0.25 setgray ef gr gs col-1 s gr

% Ellipse
n 2250 3780 45 15 0 360 DrawEllipse gs 0.25 setgray ef gr gs col-1 s gr

% Ellipse
n 2250 3690 45 15 0 360 DrawEllipse gs 0.25 setgray ef gr gs col-1 s gr

% Ellipse
n 2385 3780 45 15 0 360 DrawEllipse gs 0.25 setgray ef gr gs col-1 s gr

% Ellipse
n 2565 3825 45 15 0 360 DrawEllipse gs 0.25 setgray ef gr gs col-1 s gr

% Ellipse
n 2700 3870 45 15 0 360 DrawEllipse gs 0.25 setgray ef gr gs col-1 s gr

% Ellipse
n 2835 3870 45 15 0 360 DrawEllipse gs 0.25 setgray ef gr gs col-1 s gr

% Ellipse
n 2925 3915 45 15 0 360 DrawEllipse gs 0.25 setgray ef gr gs col-1 s gr

% Ellipse
n 3060 3915 45 15 0 360 DrawEllipse gs 0.25 setgray ef gr gs col-1 s gr

% Ellipse
n 2295 3915 45 15 0 360 DrawEllipse gs 0.25 setgray ef gr gs col-1 s gr

% Ellipse
n 2520 4005 45 15 0 360 DrawEllipse gs 0.25 setgray ef gr gs col-1 s gr

% Ellipse
n 2745 4050 45 15 0 360 DrawEllipse gs 0.25 setgray ef gr gs col-1 s gr

% Ellipse
n 3060 4095 45 15 0 360 DrawEllipse gs 0.25 setgray ef gr gs col-1 s gr

% Ellipse
n 3285 3915 45 15 0 360 DrawEllipse gs 0.25 setgray ef gr gs col-1 s gr

% Ellipse
n 3330 4050 45 15 0 360 DrawEllipse gs 0.25 setgray ef gr gs col-1 s gr

% Ellipse
n 3195 4140 45 15 0 360 DrawEllipse gs 0.25 setgray ef gr gs col-1 s gr

% Ellipse
n 2835 4185 45 15 0 360 DrawEllipse gs 0.25 setgray ef gr gs col-1 s gr

% Ellipse
n 2520 4185 45 15 0 360 DrawEllipse gs 0.25 setgray ef gr gs col-1 s gr

% Ellipse
n 2115 4095 45 15 0 360 DrawEllipse gs 0.25 setgray ef gr gs col-1 s gr

% Ellipse
n 2340 4140 45 15 0 360 DrawEllipse gs 0.25 setgray ef gr gs col-1 s gr

% Ellipse
n 2160 3915 45 15 0 360 DrawEllipse gs 0.25 setgray ef gr gs col-1 s gr

% Ellipse
n 2070 3825 45 15 0 360 DrawEllipse gs 0.25 setgray ef gr gs col-1 s gr

% Ellipse
n 2295 4050 45 15 0 360 DrawEllipse gs 0.25 setgray ef gr gs col-1 s gr

% Ellipse
n 4905 3735 45 15 0 360 DrawEllipse gs 0.25 setgray ef gr gs col-1 s gr

% Ellipse
n 4770 3735 45 15 0 360 DrawEllipse gs 0.25 setgray ef gr gs col-1 s gr

% Ellipse
n 4725 3780 45 15 0 360 DrawEllipse gs 0.25 setgray ef gr gs col-1 s gr

% Ellipse
n 4545 3735 45 15 0 360 DrawEllipse gs 0.25 setgray ef gr gs col-1 s gr

% Ellipse
n 4455 3780 45 15 0 360 DrawEllipse gs 0.25 setgray ef gr gs col-1 s gr

% Ellipse
n 4320 3735 45 15 0 360 DrawEllipse gs 0.25 setgray ef gr gs col-1 s gr

% Ellipse
n 4095 3780 45 15 0 360 DrawEllipse gs 0.25 setgray ef gr gs col-1 s gr

% Ellipse
n 4005 3690 45 15 0 360 DrawEllipse gs 0.25 setgray ef gr gs col-1 s gr

% Ellipse
n 3690 3780 45 15 0 360 DrawEllipse gs 0.25 setgray ef gr gs col-1 s gr

% Ellipse
n 3690 3690 45 15 0 360 DrawEllipse gs 0.25 setgray ef gr gs col-1 s gr

% Ellipse
n 3825 3780 45 15 0 360 DrawEllipse gs 0.25 setgray ef gr gs col-1 s gr

% Ellipse
n 4005 3825 45 15 0 360 DrawEllipse gs 0.25 setgray ef gr gs col-1 s gr

% Ellipse
n 4140 3870 45 15 0 360 DrawEllipse gs 0.25 setgray ef gr gs col-1 s gr

% Ellipse
n 4275 3870 45 15 0 360 DrawEllipse gs 0.25 setgray ef gr gs col-1 s gr

% Ellipse
n 4365 3915 45 15 0 360 DrawEllipse gs 0.25 setgray ef gr gs col-1 s gr

% Ellipse
n 4500 3915 45 15 0 360 DrawEllipse gs 0.25 setgray ef gr gs col-1 s gr

% Ellipse
n 3735 3915 45 15 0 360 DrawEllipse gs 0.25 setgray ef gr gs col-1 s gr

% Ellipse
n 3960 4005 45 15 0 360 DrawEllipse gs 0.25 setgray ef gr gs col-1 s gr

% Ellipse
n 4185 4050 45 15 0 360 DrawEllipse gs 0.25 setgray ef gr gs col-1 s gr

% Ellipse
n 4500 4095 45 15 0 360 DrawEllipse gs 0.25 setgray ef gr gs col-1 s gr

% Ellipse
n 4725 3915 45 15 0 360 DrawEllipse gs 0.25 setgray ef gr gs col-1 s gr

% Ellipse
n 4770 4050 45 15 0 360 DrawEllipse gs 0.25 setgray ef gr gs col-1 s gr

% Ellipse
n 4635 4140 45 15 0 360 DrawEllipse gs 0.25 setgray ef gr gs col-1 s gr

% Ellipse
n 4275 4185 45 15 0 360 DrawEllipse gs 0.25 setgray ef gr gs col-1 s gr

% Ellipse
n 3960 4185 45 15 0 360 DrawEllipse gs 0.25 setgray ef gr gs col-1 s gr

% Ellipse
n 3555 4095 45 15 0 360 DrawEllipse gs 0.25 setgray ef gr gs col-1 s gr

% Ellipse
n 3780 4140 45 15 0 360 DrawEllipse gs 0.25 setgray ef gr gs col-1 s gr

% Ellipse
n 3600 3915 45 15 0 360 DrawEllipse gs 0.25 setgray ef gr gs col-1 s gr

% Ellipse
n 3510 3825 45 15 0 360 DrawEllipse gs 0.25 setgray ef gr gs col-1 s gr

% Ellipse
n 3735 4050 45 15 0 360 DrawEllipse gs 0.25 setgray ef gr gs col-1 s gr

% Ellipse
n 6435 3735 45 15 0 360 DrawEllipse gs 0.25 setgray ef gr gs col-1 s gr

% Ellipse
n 6300 3735 45 15 0 360 DrawEllipse gs 0.25 setgray ef gr gs col-1 s gr

% Ellipse
n 6255 3780 45 15 0 360 DrawEllipse gs 0.25 setgray ef gr gs col-1 s gr

% Ellipse
n 6075 3735 45 15 0 360 DrawEllipse gs 0.25 setgray ef gr gs col-1 s gr

% Ellipse
n 5985 3780 45 15 0 360 DrawEllipse gs 0.25 setgray ef gr gs col-1 s gr

% Ellipse
n 5850 3735 45 15 0 360 DrawEllipse gs 0.25 setgray ef gr gs col-1 s gr

% Ellipse
n 5625 3780 45 15 0 360 DrawEllipse gs 0.25 setgray ef gr gs col-1 s gr

% Ellipse
n 5535 3690 45 15 0 360 DrawEllipse gs 0.25 setgray ef gr gs col-1 s gr

% Ellipse
n 5220 3780 45 15 0 360 DrawEllipse gs 0.25 setgray ef gr gs col-1 s gr

% Ellipse
n 5220 3690 45 15 0 360 DrawEllipse gs 0.25 setgray ef gr gs col-1 s gr

% Ellipse
n 5355 3780 45 15 0 360 DrawEllipse gs 0.25 setgray ef gr gs col-1 s gr

% Ellipse
n 5535 3825 45 15 0 360 DrawEllipse gs 0.25 setgray ef gr gs col-1 s gr

% Ellipse
n 5670 3870 45 15 0 360 DrawEllipse gs 0.25 setgray ef gr gs col-1 s gr

% Ellipse
n 5805 3870 45 15 0 360 DrawEllipse gs 0.25 setgray ef gr gs col-1 s gr

% Ellipse
n 5895 3915 45 15 0 360 DrawEllipse gs 0.25 setgray ef gr gs col-1 s gr

% Ellipse
n 6030 3915 45 15 0 360 DrawEllipse gs 0.25 setgray ef gr gs col-1 s gr

% Ellipse
n 5265 3915 45 15 0 360 DrawEllipse gs 0.25 setgray ef gr gs col-1 s gr

% Ellipse
n 5490 4005 45 15 0 360 DrawEllipse gs 0.25 setgray ef gr gs col-1 s gr

% Ellipse
n 5715 4050 45 15 0 360 DrawEllipse gs 0.25 setgray ef gr gs col-1 s gr

% Ellipse
n 6030 4095 45 15 0 360 DrawEllipse gs 0.25 setgray ef gr gs col-1 s gr

% Ellipse
n 6255 3915 45 15 0 360 DrawEllipse gs 0.25 setgray ef gr gs col-1 s gr

% Ellipse
n 6300 4050 45 15 0 360 DrawEllipse gs 0.25 setgray ef gr gs col-1 s gr

% Ellipse
n 6165 4140 45 15 0 360 DrawEllipse gs 0.25 setgray ef gr gs col-1 s gr

% Ellipse
n 5805 4185 45 15 0 360 DrawEllipse gs 0.25 setgray ef gr gs col-1 s gr

% Ellipse
n 5490 4185 45 15 0 360 DrawEllipse gs 0.25 setgray ef gr gs col-1 s gr

% Ellipse
n 5085 4095 45 15 0 360 DrawEllipse gs 0.25 setgray ef gr gs col-1 s gr

% Ellipse
n 5310 4140 45 15 0 360 DrawEllipse gs 0.25 setgray ef gr gs col-1 s gr

% Ellipse
n 5130 3915 45 15 0 360 DrawEllipse gs 0.25 setgray ef gr gs col-1 s gr

% Ellipse
n 5040 3825 45 15 0 360 DrawEllipse gs 0.25 setgray ef gr gs col-1 s gr

% Ellipse
n 5265 4050 45 15 0 360 DrawEllipse gs 0.25 setgray ef gr gs col-1 s gr

% Ellipse
n 4860 4005 45 15 0 360 DrawEllipse gs 0.25 setgray ef gr gs col-1 s gr

% Ellipse
n 4950 3915 45 15 0 360 DrawEllipse gs 0.25 setgray ef gr gs col-1 s gr

% Ellipse
n 4995 4005 45 15 0 360 DrawEllipse gs 0.25 setgray ef gr gs col-1 s gr

% Ellipse
n 5130 4005 45 15 0 360 DrawEllipse gs 0.25 setgray ef gr gs col-1 s gr

% Ellipse
n 5310 4005 45 15 0 360 DrawEllipse gs 0.25 setgray ef gr gs col-1 s gr

% Ellipse
n 5400 3960 45 15 0 360 DrawEllipse gs 0.25 setgray ef gr gs col-1 s gr

% Ellipse
n 5310 3915 45 15 0 360 DrawEllipse gs 0.25 setgray ef gr gs col-1 s gr

% Ellipse
n 5445 3870 45 15 0 360 DrawEllipse gs 0.25 setgray ef gr gs col-1 s gr

% Ellipse
n 5490 4005 45 15 0 360 DrawEllipse gs 0.25 setgray ef gr gs col-1 s gr

% Ellipse
n 5580 3960 45 15 0 360 DrawEllipse gs 0.25 setgray ef gr gs col-1 s gr

% Ellipse
n 5625 3960 45 15 0 360 DrawEllipse gs 0.25 setgray ef gr gs col-1 s gr

% Ellipse
n 5895 3915 45 15 0 360 DrawEllipse gs 0.25 setgray ef gr gs col-1 s gr

% Ellipse
n 5805 4005 45 15 0 360 DrawEllipse gs 0.25 setgray ef gr gs col-1 s gr

% Ellipse
n 5850 4095 45 15 0 360 DrawEllipse gs 0.25 setgray ef gr gs col-1 s gr

% Ellipse
n 5985 4005 45 15 0 360 DrawEllipse gs 0.25 setgray ef gr gs col-1 s gr

% Ellipse
n 6165 4050 45 15 0 360 DrawEllipse gs 0.25 setgray ef gr gs col-1 s gr

% Ellipse
n 6165 3960 45 15 0 360 DrawEllipse gs 0.25 setgray ef gr gs col-1 s gr

% Ellipse
n 6165 3870 45 15 0 360 DrawEllipse gs 0.25 setgray ef gr gs col-1 s gr

% Ellipse
n 5805 4185 45 15 0 360 DrawEllipse gs 0.25 setgray ef gr gs col-1 s gr

% Ellipse
n 5940 4185 45 15 0 360 DrawEllipse gs 0.25 setgray ef gr gs col-1 s gr

% Ellipse
n 6255 4185 45 15 0 360 DrawEllipse gs 0.25 setgray ef gr gs col-1 s gr

% Ellipse
n 6345 4185 45 15 0 360 DrawEllipse gs 0.25 setgray ef gr gs col-1 s gr

% Ellipse
n 6390 4095 45 15 0 360 DrawEllipse gs 0.25 setgray ef gr gs col-1 s gr

% Ellipse
n 6390 4005 45 15 0 360 DrawEllipse gs 0.25 setgray ef gr gs col-1 s gr

% Ellipse
n 6435 3870 45 15 0 360 DrawEllipse gs 0.25 setgray ef gr gs col-1 s gr

% Ellipse
n 5715 3735 45 15 0 360 DrawEllipse gs 0.25 setgray ef gr gs col-1 s gr

% Ellipse
n 5940 3690 45 15 0 360 DrawEllipse gs 0.25 setgray ef gr gs col-1 s gr

% Ellipse
n 5130 3735 45 15 0 360 DrawEllipse gs 0.25 setgray ef gr gs col-1 s gr

% Ellipse
n 5085 4185 45 15 0 360 DrawEllipse gs 0.25 setgray ef gr gs col-1 s gr

% Ellipse
n 5175 4275 45 15 0 360 DrawEllipse gs 0.25 setgray ef gr gs col-1 s gr

% Ellipse
n 4680 4275 45 15 0 360 DrawEllipse gs 0.25 setgray ef gr gs col-1 s gr

% Ellipse
n 4770 4185 45 15 0 360 DrawEllipse gs 0.25 setgray ef gr gs col-1 s gr

% Ellipse
n 4545 4230 45 15 0 360 DrawEllipse gs 0.25 setgray ef gr gs col-1 s gr

% Ellipse
n 4410 4230 45 15 0 360 DrawEllipse gs 0.25 setgray ef gr gs col-1 s gr

% Ellipse
n 4230 4275 45 15 0 360 DrawEllipse gs 0.25 setgray ef gr gs col-1 s gr

% Ellipse
n 4005 4275 45 15 0 360 DrawEllipse gs 0.25 setgray ef gr gs col-1 s gr

% Ellipse
n 3825 4230 45 15 0 360 DrawEllipse gs 0.25 setgray ef gr gs col-1 s gr

% Ellipse
n 3600 4230 45 15 0 360 DrawEllipse gs 0.25 setgray ef gr gs col-1 s gr

% Ellipse
n 3600 4185 45 15 0 360 DrawEllipse gs 0.25 setgray ef gr gs col-1 s gr

% Ellipse
n 3420 4230 45 15 0 360 DrawEllipse gs 0.25 setgray ef gr gs col-1 s gr

% Ellipse
n 3240 4230 45 15 0 360 DrawEllipse gs 0.25 setgray ef gr gs col-1 s gr

% Ellipse
n 3330 4185 45 15 0 360 DrawEllipse gs 0.25 setgray ef gr gs col-1 s gr

% Ellipse
n 3465 4050 45 15 0 360 DrawEllipse gs 0.25 setgray ef gr gs col-1 s gr

% Ellipse
n 3420 3960 45 15 0 360 DrawEllipse gs 0.25 setgray ef gr gs col-1 s gr

% Ellipse
n 3195 4005 45 15 0 360 DrawEllipse gs 0.25 setgray ef gr gs col-1 s gr

% Ellipse
n 3150 3870 45 15 0 360 DrawEllipse gs 0.25 setgray ef gr gs col-1 s gr

% Ellipse
n 3150 3735 45 15 0 360 DrawEllipse gs 0.25 setgray ef gr gs col-1 s gr

% Ellipse
n 4590 4005 45 15 0 360 DrawEllipse gs 0.25 setgray ef gr gs col-1 s gr

% Ellipse
n 4410 4005 45 15 0 360 DrawEllipse gs 0.25 setgray ef gr gs col-1 s gr

% Ellipse
n 4545 3825 45 15 0 360 DrawEllipse gs 0.25 setgray ef gr gs col-1 s gr

% Ellipse
n 4590 3690 45 15 0 360 DrawEllipse gs 0.25 setgray ef gr gs col-1 s gr

% Ellipse
n 2925 4095 45 15 0 360 DrawEllipse gs 0.25 setgray ef gr gs col-1 s gr

% Ellipse
n 2925 4230 45 15 0 360 DrawEllipse gs 0.25 setgray ef gr gs col-1 s gr

% Ellipse
n 2880 4050 45 15 0 360 DrawEllipse gs 0.25 setgray ef gr gs col-1 s gr

% Ellipse
n 5670 4185 45 15 0 360 DrawEllipse gs 0.25 setgray ef gr gs col-1 s gr

% Ellipse
n 5580 4230 45 15 0 360 DrawEllipse gs 0.25 setgray ef gr gs col-1 s gr

% Ellipse
n 6075 4230 45 15 0 360 DrawEllipse gs 0.25 setgray ef gr gs col-1 s gr

% Ellipse
n 5535 4095 45 15 0 360 DrawEllipse gs 0.25 setgray ef gr gs col-1 s gr

% Ellipse
n 4365 4140 45 15 0 360 DrawEllipse gs 0.25 setgray ef gr gs col-1 s gr

% Ellipse
n 4050 4095 45 15 0 360 DrawEllipse gs 0.25 setgray ef gr gs col-1 s gr

% Ellipse
n 3060 4275 45 15 0 360 DrawEllipse gs 0.25 setgray ef gr gs col-1 s gr

% Ellipse
n 2610 4275 45 15 0 360 DrawEllipse gs 0.25 setgray ef gr gs col-1 s gr

% Ellipse
n 2340 4275 45 15 0 360 DrawEllipse gs 0.25 setgray ef gr gs col-1 s gr

% Ellipse
n 2115 4275 45 15 0 360 DrawEllipse gs 0.25 setgray ef gr gs col-1 s gr

% Ellipse
n 2115 4185 45 15 0 360 DrawEllipse gs 0.25 setgray ef gr gs col-1 s gr

% Ellipse
n 1890 4275 45 15 0 360 DrawEllipse gs 0.25 setgray ef gr gs col-1 s gr

% Ellipse
n 1710 4275 45 15 0 360 DrawEllipse gs 0.25 setgray ef gr gs col-1 s gr

% Ellipse
n 1440 4275 45 15 0 360 DrawEllipse gs 0.25 setgray ef gr gs col-1 s gr

% Ellipse
n 1170 4275 45 15 0 360 DrawEllipse gs 0.25 setgray ef gr gs col-1 s gr

% Ellipse
n 900 4275 45 15 0 360 DrawEllipse gs 0.25 setgray ef gr gs col-1 s gr

% Ellipse
n 810 4230 45 15 0 360 DrawEllipse gs 0.25 setgray ef gr gs col-1 s gr

% Ellipse
n 765 4050 45 15 0 360 DrawEllipse gs 0.25 setgray ef gr gs col-1 s gr

% Ellipse
n 855 4050 45 15 0 360 DrawEllipse gs 0.25 setgray ef gr gs col-1 s gr

% Ellipse
n 1080 4095 45 15 0 360 DrawEllipse gs 0.25 setgray ef gr gs col-1 s gr

% Ellipse
n 1080 3915 45 15 0 360 DrawEllipse gs 0.25 setgray ef gr gs col-1 s gr

% Ellipse
n 1170 4005 45 15 0 360 DrawEllipse gs 0.25 setgray ef gr gs col-1 s gr

% Ellipse
n 1170 3825 45 15 0 360 DrawEllipse gs 0.25 setgray ef gr gs col-1 s gr

% Ellipse
n 1080 3735 45 15 0 360 DrawEllipse gs 0.25 setgray ef gr gs col-1 s gr

% Ellipse
n 810 3735 45 15 0 360 DrawEllipse gs 0.25 setgray ef gr gs col-1 s gr

% Ellipse
n 765 3780 45 15 0 360 DrawEllipse gs 0.25 setgray ef gr gs col-1 s gr

% Ellipse
n 1350 3780 45 15 0 360 DrawEllipse gs 0.25 setgray ef gr gs col-1 s gr

% Ellipse
n 1485 3735 45 15 0 360 DrawEllipse gs 0.25 setgray ef gr gs col-1 s gr

% Ellipse
n 1665 3735 45 15 0 360 DrawEllipse gs 0.25 setgray ef gr gs col-1 s gr

% Ellipse
n 1890 3690 45 15 0 360 DrawEllipse gs 0.25 setgray ef gr gs col-1 s gr

% Ellipse
n 2025 3780 45 15 0 360 DrawEllipse gs 0.25 setgray ef gr gs col-1 s gr

% Ellipse
n 2070 3690 45 15 0 360 DrawEllipse gs 0.25 setgray ef gr gs col-1 s gr

% Ellipse
n 1845 3870 45 15 0 360 DrawEllipse gs 0.25 setgray ef gr gs col-1 s gr

% Ellipse
n 1845 4050 45 15 0 360 DrawEllipse gs 0.25 setgray ef gr gs col-1 s gr

% Ellipse
n 1845 4050 45 15 0 360 DrawEllipse gs 0.25 setgray ef gr gs col-1 s gr

% Ellipse
n 1575 4050 45 15 0 360 DrawEllipse gs 0.25 setgray ef gr gs col-1 s gr

% Ellipse
n 1575 4140 45 15 0 360 DrawEllipse gs 0.25 setgray ef gr gs col-1 s gr

% Ellipse
n 1395 4005 45 15 0 360 DrawEllipse gs 0.25 setgray ef gr gs col-1 s gr

% Ellipse
n 1305 4185 45 15 0 360 DrawEllipse gs 0.25 setgray ef gr gs col-1 s gr

% Ellipse
n 2070 3915 45 15 0 360 DrawEllipse gs 0.25 setgray ef gr gs col-1 s gr

% Ellipse
n 2340 4005 45 15 0 360 DrawEllipse gs 0.25 setgray ef gr gs col-1 s gr

% Ellipse
n 2430 3915 45 15 0 360 DrawEllipse gs 0.25 setgray ef gr gs col-1 s gr

% Ellipse
n 2385 3825 45 15 0 360 DrawEllipse gs 0.25 setgray ef gr gs col-1 s gr

% Ellipse
n 2340 4095 45 15 0 360 DrawEllipse gs 0.25 setgray ef gr gs col-1 s gr

% Ellipse
n 2430 3915 45 15 0 360 DrawEllipse gs 0.25 setgray ef gr gs col-1 s gr

% Ellipse
n 2385 3960 45 15 0 360 DrawEllipse gs 0.25 setgray ef gr gs col-1 s gr

% Ellipse
n 2565 3960 45 15 0 360 DrawEllipse gs 0.25 setgray ef gr gs col-1 s gr

% Ellipse
n 2745 3960 45 15 0 360 DrawEllipse gs 0.25 setgray ef gr gs col-1 s gr

% Ellipse
n 2610 4275 45 15 0 360 DrawEllipse gs 0.25 setgray ef gr gs col-1 s gr

% Polyline
 [60] 0 sd
n 1949 1506 m 1710 1845 l gs col-1 s gr  [] 0 sd
% Polyline
15.000 slw
gs  clippath
314 697 m 344 576 l 374 697 l 374 516 l 314 516 l cp
clip
n 344 546 m 345 2647 l gs col-1 s gr gr

% arrowhead
n 314 697 m 344 576 l 374 697 l  col-1 s
% Polyline
gs  clippath
6973 2616 m 7093 2646 l 6973 2676 l 7154 2676 l 7154 2616 l cp
clip
n 345 2647 m 7124 2646 l gs col-1 s gr gr

% arrowhead
n 6973 2616 m 7093 2646 l 6973 2676 l  col-1 s
% Polyline
n 5265 765 m 4950 1125 l 2250 1125 l 1949 1506 l gs col-1 s gr 
% Polyline
7.500 slw
 [60] 0 sd
n 5490 495 m 5265 765 l gs col-1 s gr  [] 0 sd
% Polyline
 [60] 0 sd
n 4951 1380 m 4950 2496 l gs col-1 s gr  [] 0 sd
% Polyline
n 4950 2550 m 4950 2700 l gs col-1 s gr 
% Polyline
gs  clippath
4785 1684 m 4904 1717 l 4783 1744 l 4918 1747 l 4920 1687 l cp
clip
n 4590 1710 m 4904 1717 l gs col-1 s gr gr

% arrowhead
n 4785 1684 m 4904 1717 l 4783 1744 l  col-1 s
% Polyline
 [60] 0 sd
n 2252 1365 m 2250 2501 l gs col-1 s gr  [] 0 sd
% Polyline
gs  clippath
2415 1740 m 2295 1710 l 2415 1680 l 2280 1680 l 2280 1740 l cp
clip
n 2295 1710 m 2610 1710 l gs col-1 s gr gr

% arrowhead
n 2415 1740 m 2295 1710 l 2415 1680 l  col-1 s
% Polyline
n 2250 2550 m 2250 2700 l gs col-1 s gr 
% Polyline
gs  clippath
2938 4932 m 2794 4902 l 2938 4872 l 2779 4872 l 2779 4932 l cp
clip
n 4564 4902 m 2794 4902 l gs col-1 s gr gr

% arrowhead
n 2938 4932 m 2794 4902 l 2938 4872 l 2914 4902 l 2938 4932 l  cp gs 0.00 setgray ef gr  col-1 s
% Polyline
gs  clippath
4425 5318 m 4569 5348 l 4425 5378 l 4584 5378 l 4584 5318 l cp
clip
n 4569 5348 m 2799 5348 l gs col-1 s gr gr

% arrowhead
n 4425 5318 m 4569 5348 l 4425 5378 l 4449 5348 l 4425 5318 l  cp gs 0.00 setgray ef gr  col-1 s
% Polyline
n 780 2115 m 675 2115 675 2310 105 arcto 4 {pop} repeat
  675 2415 1830 2415 105 arcto 4 {pop} repeat
  1935 2415 1935 2220 105 arcto 4 {pop} repeat
  1935 2115 780 2115 105 arcto 4 {pop} repeat
 cp gs col-1 s gr 
% Polyline
n 5475 2115 m 5370 2115 5370 2325 105 arcto 4 {pop} repeat
  5370 2430 6555 2430 105 arcto 4 {pop} repeat
  6660 2430 6660 2220 105 arcto 4 {pop} repeat
  6660 2115 5475 2115 105 arcto 4 {pop} repeat
 cp gs col-1 s gr 
% Polyline
n 3165 2115 m 3060 2115 3060 2325 105 arcto 4 {pop} repeat
  3060 2430 4260 2430 105 arcto 4 {pop} repeat
  4365 2430 4365 2220 105 arcto 4 {pop} repeat
  4365 2115 3165 2115 105 arcto 4 {pop} repeat
 cp gs col-1 s gr 
/Helvetica-Bold-iso ff 210.00 scf sf
5445 2340 m
gs 1 -1 sc (conduction) col-1 sh gr
/Helvetica-Bold-iso ff 210.00 scf sf
5969 1101 m
gs 1 -1 sc (heat flow) col-1 sh gr
/Helvetica-Bold-iso ff 195.00 scf sf
3600 2925 m
gs 1 -1 sc (x) col-1 sh gr
/Helvetica-Bold-iso ff 195.00 scf sf
2250 2970 m
gs 1 -1 sc (0) col-1 sh gr
/Helvetica-Bold-iso ff 210.00 scf sf
4995 3285 m
gs 1 -1 sc (one-phase region) col-1 sh gr
/Helvetica-Bold-iso ff 210.00 scf sf
5490 3510 m
gs 1 -1 sc (steam) col-1 sh gr
/Helvetica-Bold-iso ff 210.00 scf sf
2835 1035 m
gs 1 -1 sc (temperature curve) col-1 sh gr
/Helvetica-Bold-iso ff 195.00 scf sf
4950 2925 m
gs 1 -1 sc (l) col-1 sh gr
/Helvetica-Bold-iso ff 210.00 scf sf
4384 5187 m
gs 1 -1 sc (evaporation) col-1 sh gr
/Helvetica-Bold-iso ff 210.00 scf sf
1884 5182 m
gs 1 -1 sc (condensation) col-1 sh gr
/Helvetica-Bold-iso ff 210.00 scf sf
3150 4770 m
gs 1 -1 sc (steam flow) col-1 sh gr
/Helvetica-Bold-iso ff 210.00 scf sf
3060 5625 m
gs 1 -1 sc (water flow) col-1 sh gr
/Helvetica-Bold-iso ff 210.00 scf sf
270 405 m
gs 1 -1 sc (temperature) col-1 sh gr
/Helvetica-Bold-iso ff 210.00 scf sf
2655 1800 m
gs 1 -1 sc (length of heatpipe) col-1 sh gr
/Helvetica-Bold-iso ff 210.00 scf sf
720 2340 m
gs 1 -1 sc (conduction ) col-1 sh gr
/Helvetica-Bold-iso ff 210.00 scf sf
3150 2340 m
gs 1 -1 sc (convection) col-1 sh gr
/Helvetica-Bold-iso ff 210.00 scf sf
405 3285 m
gs 1 -1 sc (one-phase region) col-1 sh gr
/Helvetica-Bold-iso ff 210.00 scf sf
990 3510 m
gs 1 -1 sc (water) col-1 sh gr
/Helvetica-Bold-iso ff 210.00 scf sf
2970 3510 m
gs 1 -1 sc (the heatpipe) col-1 sh gr
/Helvetica-Bold-iso ff 210.00 scf sf
2565 3285 m
gs 1 -1 sc (two-phase region of) col-1 sh gr
$F2psEnd
rs
