%!PS-Adobe-2.0 EPSF-2.0
%%Creator: TECPLOT
%%Pages:1
%%BoundingBox: 71 17 721 595
%%DocumentFonts: Helvetica Helvetica-Bold Symbol Times-Roman Times-Bold Times-Italic Times-BoldItalic Courier Courier-Bold
%%EndComments
%%BeginPreview: 128 128 1 128
% ffffffffffffffffffffffffffffffff
% ffffffffffffffffffffffffffffffff
% ffffffffffffffffffffffffffffffff
% ffffffffffffffffffffffffffffffff
% ffffffffffffffffffffffffffffffff
% ffffffffffffffffffffffffffffffff
% ffffffffffffffffffffffffffffffff
% ffffffffffffffffffffffffffffffff
% ffffffffffffffffffffffffffffffff
% ffffffffffffffffffffffffffffffff
% ffffffffffffffffffffffffffffffff
% ffffffffffffffffffffffffffffffff
% ffffffffffffffffffffffffffffffff
% ffffffffffffffffffffffffffffffff
% ffffffffffffffffffffffffffffffff
% ffffffffffffffffffffffffffffffff
% ffffffffffffffffffffffffffffffff
% ffffffffffffffffffffffffffffffff
% ffffffffffffffffffffffffffffffff
% ffffffffffffffffffffffffffffffff
% ffffffffffffffffffffffffffffffff
% ffffffffffffffffffffffffffffffff
% ffffffffffffffffffffffffffffffff
% ffffffffffffffffffffffffffffffff
% ffffffffffffffffffffffffffffffff
% ffffffffffffffffffffffffffffffff
% ffffffffffffffffffffffffffffffff
% ffffffffffffffffffffffffffffffff
% ffffffffffffffffffffffffffffffff
% ffffffffffffffffffffffffffffffff
% ffffffffffffffffffffffffffffffff
% ffffffffffffffffffffffffffffffff
% ffffffffffffffffffffffffffffffff
% ffffffffffffffffffffffffffffffff
% ffffffffffffffffffffffffffffffff
% ffffffffffffffffffffffffffffffff
% ffffffffffffffffffffffffffffffff
% ffffffffffffffffffffffffffffffff
% ffffffffffffffffffffffffffffffff
% ffffffffffffffffffffffffffffffff
% ffffffffffffffffffffffffffffffff
% ffffffffffffffffffffffffffffffff
% ffffffffffffffffffffffffffffffff
% ffffffffffffffffffffffffffffffff
% ffffffffffffffffffffffffffffffff
% ffffffffffffffffffffffffffffffff
% ffffffffffffffffffffffffffffffff
% ffffffffffffffffffffffffffffffff
% ffffffffffffffffffffffffffffffff
% ffffffffffffffffffffffffffffffff
% ffffffffffffffffffffffffffffffff
% ffffffffffffffffffffffffffffffff
% ffffffffffffffffffffffffffffffff
% ffffffffffffffffffffffffffffffff
% ffffffffffffffffffffffffffffffff
% ffffffffffffffffffffffffffffffff
% ffffffffffffffffffffffffffffffff
% ffffffffffffffffffffffffffffffff
% ffffffffffffffffffffffffffffffff
% ffffffffffffffffffffffffffffffff
% ffffffffffffffffffffffffffffffff
% ffffffffffffffffffffffffffffffff
% ffffffffffffffffffffffffffffffff
% ffffffffffffffffffffffffffffffff
% ffffffffffffffffffffffffffffffff
% ffffffffffffffffffffffffffffffff
% ffffffffffffffffffffffffffffffff
% ffffffffffffffffffffffffffffffff
% ffffffffffffffffffffffffffffffff
% ffffffffffffffffffffffffffffffff
% ffffffffffffffffffffffffffffffff
% ffffffffffffffffffffffffffffffff
% ffffffffffffffffffffffffffffffff
% ffffffffffffffffffffffffffffffff
% ffffffffffffffffffffffffffffffff
% ffffffffffffffffffffffffffffffff
% ffffffffffffffffffffffffffffffff
% ffffffffffffffffffffffffffffffff
% ffffffffffffffffffffffffffffffff
% ffffffffffffffffffffffffffffffff
% ffffffffffffffffffffffffffffffff
% ffffffffffffffffffffffffffffffff
% ffffffffffffffffffffffffffffffff
% ffffffffffffffffffffffffffffffff
% ffffffffffffffffffffffffffffffff
% ffffffffffffffffffffffffffffffff
% ffffffffffffffffffffffffffffffff
% ffffffffffffffffffffffffffffffff
% ffffffffffffffffffffffffffffffff
% ffffffffffffffffffffffffffffffff
% ffffffffffffffffffffffffffffffff
% ffffffffffffffffffffffffffffffff
% ffffffffffffffffffffffffffffffff
% ffffffffffffffffffffffffffffffff
% ffffffffffffffffffffffffffffffff
% ffffffffffffffffffffffffffffffff
% ffffffffffffffffffffffffffffffff
% ffffffffffffffffffffffffffffffff
% ffffffffffffffffffffffffffffffff
% ffffffffffffffffffffffffffffffff
% ffffffffffffffffffffffffffffffff
% ffffffffffffffffffffffffffffffff
% ffffffffffffffffffffffffffffffff
% ffffffffffffffffffffffffffffffff
% ffffffffffffffffffffffffffffffff
% ffffffffffffffffffffffffffffffff
% ffffffffffffffffffffffffffffffff
% ffffffffffffffffffffffffffffffff
% ffffffffffffffffffffffffffffffff
% ffffffffffffffffffffffffffffffff
% ffffffffffffffffffffffffffffffff
% ffffffffffffffffffffffffffffffff
% ffffffffffffffffffffffffffffffff
% ffffffffffffffffffffffffffffffff
% ffffffffffffffffffffffffffffffff
% ffffffffffffffffffffffffffffffff
% ffffffffffffffffffffffffffffffff
% ffffffffffffffffffffffffffffffff
% ffffffffffffffffffffffffffffffff
% ffffffffffffffffffffffffffffffff
% ffffffffffffffffffffffffffffffff
% ffffffffffffffffffffffffffffffff
% ffffffffffffffffffffffffffffffff
% ffffffffffffffffffffffffffffffff
% ffffffffffffffffffffffffffffffff
% ffffffffffffffffffffffffffffffff
% ffffffffffffffffffffffffffffffff
% ffffffffffffffffffffffffffffffff
%%EndPreview
/tecplotdict 120 dict def
tecplotdict begin
/ed  {exch def} def
/ftl {findfont exch scalefont setfont} def
/ftr {/ISOLatin1-Times-Roman ftl} def
/ftb {/ISOLatin1-Times-Bold ftl} def
/fti {/ISOLatin1-Times-Italic ftl} def
/ftib {/ISOLatin1-Times-BoldItalic ftl} def
/fcr {/ISOLatin1-Courier ftl} def
/fcb {/ISOLatin1-Courier-Bold ftl} def
/fhn {/ISOLatin1-Helvetica ftl} def
/fhb {/ISOLatin1-Helvetica-Bold ftl} def
/fsy {/Symbol ftl} def
/gs /gsave load def
/gr /grestore load def
/np /newpath load def
/cp /closepath load def
/g /setgray load def
/lc {setlinecap} def
/lj /setlinejoin load def
/x /setrgbcolor load def
/sd /setdash load def
/sw {setlinewidth} def
/cpt /currentpoint load def
/m {moveto} def
/rm /rmoveto load def
/l /lineto load def
/r /rlineto load def
/sf /setflat load def
/s /stroke load def
/q {cpt s m} def
/ro /rotate load def
/sh /show load def
/clp {cp gr gs np m l l l cp clip np cp} def
/dorect
{
/height ed
/width  ed
m
0 height r
width 0 r
0 height neg r
cp
} def
/er {cp np dorect g fill 0 g cp} def
/erc {cp np dorect x fill 0 g cp} def
/br {cp np dorect g cp s} def
/brc {cp np dorect x cp s} def
/ii 0 def
/n 0 def
/CurA 0 def
/Ry 0 def
/Rx 0 def
/CA 0 def
/SA 0 def
/SJ 0 def
/SI 0 def
/bi 0 def
/i 0 def
/ib 0 def
/ig 0 def
/ir 0 def
/ishade 0 def
/bshade 0 def
/dcs
{
m
dup dup dup
-2 div dup
rm
0 r
0 exch r
neg 0 r
cp
} bind def
/pg
{
/size ed
/Ny ed
/Nx ed
/Y2 ed
/X2 ed
/Y1 ed
/X1 ed
Ny 1 gt
{/Dy Y2 Y1 sub Ny 1 sub div def}
{/Dy 0.0 def}
ifelse
Nx 1 gt
{/Dx X2 X1 sub Nx 1 sub div def}
{/Dx 0.0 def}
ifelse
Y1 Dy Y2 Dy 2 div add
{
X1 Dx X2 Dx 2 div add
{
1 index
size 3 1 roll
dcs fill
Dx 0.0 eq
{exit}
if
} for
pop
Dy 0.0 eq
{exit}
if
} for
} bind def
/z
{
/ii ed
rea ii get
gra ii get
bla ii get
} def
/lrgb
{
/ii ed
/blue ed
/green ed
/red ed
bla ii blue put
gra ii green put
rea ii red put
} def
/trace
{
cp np
m
1 1 n 
{
pop
r
} for
cp
} def
/f
{
/ishade ed
/n ed 
s
trace
ishade g fill
} def
/b
{
/bshade ed
/n ed 
m
1 1 n 
{
pop
r
} for
bshade g s
} def
/fb
{
/bshade ed
/ishade ed
/n ed 
s 
n 2 mul 2 add copy
trace
ishade g fill
trace
bshade g s
} def
/c
{
/n ed 
s 
trace
s
} def
/fc
{
/i ed
/n ed 
s 
trace
i z x fill
} def
/fd
{
/ib ed
/ig ed
/ir ed
/n ed 
s 
trace
ir ig ib x fill
} def
/bc
{
/i ed
/n ed 
m
1 1 n 
{
pop
r
} for
i z x s
} def
/fbc
{
/ii ed
/bi ed
/n ed 
s 
n 2 mul 2 add copy
trace
ii z x fill
trace
bi z x s
} def
/fbd
{
/ib ed
/ig ed
/ir ed
/bi ed
/n ed 
s
n 2 mul 2 add copy
trace
ir ig ib x fill
trace
bi z x s
} def
/e
{
/Ry ed
/Rx ed
/CA ed
/SA ed
/SJ ed
/SI ed
/DelX SA cos Rx mul def
/DelY SA sin Ry mul def
/XI SI DelX add def
/YI SJ DelY add def
/OCX DelX def
/OCY DelY def
/N 0 def
SA CA add
CA
SA 360 add
{
/CurA ed
/CX CurA cos Rx mul def
/CY CurA sin Ry mul def
OCX CX sub 
OCY CY sub 
/OCX CX def
/OCY CY def
/N N 1 add def
}
for
XI YI N
} def
%%EndProlog
%%Page:? 1
/getisofont
{
findfont
dup length dict begin
{
1 index /FID ne {def}{pop pop} ifelse
} forall
/Encoding ISOLatin1Encoding def
currentdict
end
} def
/Helvetica             getisofont /ISOLatin1-Helvetica             exch definefont pop
/Helvetica-Bold        getisofont /ISOLatin1-Helvetica-Bold        exch definefont pop
/Helvetica-Oblique     getisofont /ISOLatin1-Helvetica-Oblique     exch definefont pop
/Helvetica-BoldOblique getisofont /ISOLatin1-Helvetica-BoldOblique exch definefont pop
/Times-Roman           getisofont /ISOLatin1-Times-Roman           exch definefont pop
/Times-Bold            getisofont /ISOLatin1-Times-Bold            exch definefont pop
/Times-BoldItalic      getisofont /ISOLatin1-Times-BoldItalic      exch definefont pop
/Times-Italic          getisofont /ISOLatin1-Times-Italic          exch definefont pop
/Courier               getisofont /ISOLatin1-Courier               exch definefont pop
/Courier-Bold          getisofont /ISOLatin1-Courier-Bold          exch definefont pop
/Courier-Oblique       getisofont /ISOLatin1-Courier-Oblique       exch definefont pop
/Courier-BoldOblique   getisofont /ISOLatin1-Courier-BoldOblique   exch definefont pop
5 setmiterlimit
0.025 0.025 scale np
gs
2834 674 2834 23806 28846 23806 28846 674 clp
1 2880 720 25920 23040 er
2879 719 2879 23761 28801 23761 28801 719 clp
6249 3253 6249 20996 25691 20996 25691 3253 clp
0 g
23 sw
0 lc
0 lj
[1 114] 0 sd
6250 3254 m
6250 20995 l
s
8146 3254 m
8146 20995 l
s
10043 3254 m
10043 20995 l
s
11939 3254 m
11939 20995 l
s
13836 3254 m
13836 20995 l
s
15733 3254 m
15733 20995 l
s
17629 3254 m
17629 20995 l
s
19526 3254 m
19526 20995 l
s
21422 3254 m
21422 20995 l
s
23319 3254 m
23319 20995 l
s
25215 3254 m
25215 20995 l
s
2879 719 2879 23761 28801 23761 28801 719 clp
6249 3253 6249 20996 25691 20996 25691 3253 clp
0 g
23 sw
0 lc
0 lj
[1 114] 0 sd
6250 3964 m
25690 3964 l
s
6250 6803 m
25690 6803 l
s
6250 9641 m
25690 9641 l
s
6250 12480 m
25690 12480 l
s
6250 15318 m
25690 15318 l
s
6250 18157 m
25690 18157 l
s
6250 20995 m
25690 20995 l
s
88.990 0.904 209.636 7.972 209.635 15.362 209.636 16.965 209.635 17.569 209.635 18.134 209.635 18.201 209.636 18.999 209.635 19.454 209.635 19.925
209.636 20.707 209.635 20.707 209.635 20.707 209.635 21.328 209.636 21.871 209.635 22.414 209.635 22.963 209.635 23.213 209.636 23.218 209.635 23.468
209.635 24.477 209.635 24.471 209.636 25.059 209.635 25.608 209.635 25.730 209.635 26.068 209.636 26.617 209.635 27.160 209.635 27.703 209.636 28.236
209.635 28.241 209.635 29.355 209.635 29.489 209.636 30.281 209.635 30.753 209.635 31.207 209.635 32.000 209.636 32.133 209.635 33.258 209.635 34.484
209.635 34.511 209.636 35.404 209.635 36.502 209.635 37.306 209.635 38.048 209.636 39.146 209.635 40.233 209.635 41.414 209.635 42.578 209.635 44.169
209.635 45.389 209.635 47.146 209.635 49.081 209.635 50.711 209.635 52.529 209.635 55.257 209.635 58.356 209.635 61.671 209.635 64.471 209.635 68.757
209.635 73.353 209.635 78.392 209.635 84.529 209.635 91.310 209.635 100.402 209.635 111.290 209.635 124.762 209.635 140.163 209.635 159.922 209.635 185.048
209.635 216.521 209.635 255.063 209.635 298.966 209.635 341.993 209.635 352.914 209.635 335.168 209.635 308.280 209.635 282.334 209.635 261.544 209.635 246.619
209.635 236.912 209.635 230.919 209.635 228.413 209.635 230.048 209.635 234.461 209.635 243.193 209.635 256.842 209.635 276.901 209.635 307.398 209.635 356.646
209.635 447.406 209.635 677.793 209.635 1092.711 6314.200 8109.902 93 92 sw
[461] 0 sd
0 b
0.000 0.050 0.000 0.244 9.485 0.638 18.964 1.325 37.933 2.401 56.896 3.886 75.865 5.882 104.311 8.377 142.244 11.398 189.659 14.930
218.107 18.922 265.522 23.313 303.453 27.992 350.869 32.820 379.317 37.688 417.249 42.461 445.697 47.002 474.147 51.199 483.629 54.958 493.111 58.234
493.113 60.984 493.111 63.196 493.113 64.893 474.146 66.096 464.664 66.872 455.180 67.243 426.732 67.288 417.249 67.060 388.800 66.606 369.833 65.996
350.869 65.253 331.902 64.449 312.937 63.595 303.454 62.747 275.005 61.921 265.522 61.156 246.556 60.463 227.590 59.853 218.107 59.376 208.625 59.005
199.141 58.783 189.659 58.694 170.693 58.772 170.693 58.994 161.209 59.398 151.727 59.969 151.727 60.718 142.244 61.644 132.761 62.764 132.761 64.050
123.278 65.541 123.278 67.210 113.795 69.067 113.795 71.135 104.313 73.375 104.312 75.825 104.312 78.464 94.829 81.297 94.830 84.313 94.829 87.556
94.829 90.977 85.346 94.592 75.863 98.412 85.346 102.420 75.864 106.644 75.863 111.052 75.863 115.664 75.864 120.471 75.863 125.477 75.864 130.689
75.863 136.083 85.346 141.694 85.346 147.493 85.346 153.491 104.312 159.695 113.795 166.087 113.795 172.690 132.761 179.487 151.727 186.484 161.210 193.680
170.693 201.070 189.659 208.660 199.141 216.454 208.624 224.449 218.107 232.632 218.107 241.025 227.590 249.608 218.107 258.395 208.624 267.393 199.142 276.568
180.176 285.965 161.210 295.545 132.761 305.336 104.312 315.315 85.346 325.499 47.415 335.894 37.932 346.478 18.966 357.255 18.966 368.249 6249.600 7746.371 99 23 sw
[] 0 sd
0 b
88.990 -192.264 209.636 -919.323 209.635 -513.862 209.636 -251.886 209.635 -167.412 209.635 -129.652 209.635 -106.267 209.636 -89.863 209.635 -77.549 209.635 -68.180
209.636 -60.895 209.635 -54.564 209.635 -49.574 209.635 -45.245 209.636 -40.893 209.635 -38.348 209.635 -35.421 209.635 -32.726 209.636 -30.547 209.635 -28.491
209.635 -26.850 209.635 -25.103 209.636 -23.922 209.635 -22.326 209.635 -20.690 209.635 -19.737 209.636 -18.933 209.635 -17.846 209.635 -16.748 209.636 -15.673
209.635 -15.063 209.635 -13.943 209.635 -13.328 209.636 -12.779 209.635 -12.241 209.635 -11.692 209.635 -10.999 209.636 -10.040 209.635 -10.040 209.635 -9.425
209.635 -8.355 209.636 -8.161 209.635 -8.155 209.635 -7.590 209.635 -6.902 209.636 -6.786 209.635 -6.276 209.635 -6.276 209.635 -5.112 209.635 -5.516
209.635 -4.812 209.635 -4.729 209.635 -4.513 209.635 -3.764 209.635 -3.764 209.635 -3.759 209.635 -3.138 209.635 -3.138 209.635 -2.667 209.635 -2.511
209.635 -2.511 209.635 -2.284 209.635 -1.885 209.635 -1.879 209.635 -1.885 209.635 -1.275 209.635 -1.258 209.635 -1.253 209.635 -1.253 209.635 -0.981
209.635 -0.821 209.635 -1.142 209.635 -0.599 209.635 -0.000 209.635 -0.577 209.635 -0.133 209.635 -0.000 209.635 -0.327 209.635 -0.383 209.635 -0.000
209.635 -0.000 209.635 -0.000 209.635 -0.000 209.635 -0.000 209.635 -0.000 209.635 -0.000 209.635 -0.000 209.635 -0.000 209.635 -0.000 209.635 -0.000
209.635 -0.000 209.635 -0.000 209.635 -0.000 6314.200 7742.113 93 46 sw
[461 184 92 184] 0 sd
0 b
0.000 -241.807 0.000 -233.219 9.485 -224.615 18.964 -215.917 37.933 -207.041 56.896 -197.943 75.865 -188.546 104.311 -178.844 142.244 -168.815 189.659 -158.475
218.107 -147.870 265.522 -137.081 303.453 -126.209 350.869 -115.354 379.317 -104.682 417.249 -94.292 445.697 -84.363 474.147 -74.949 483.629 -66.184 493.111 -58.096
493.113 -50.739 493.111 -44.125 493.113 -38.220 474.146 -32.998 464.664 -28.430 455.180 -24.438 426.732 -20.990 417.249 -18.012 388.800 -15.457 369.833 -13.261
350.869 -11.382 331.902 -9.796 312.937 -8.427 303.454 -7.274 275.005 -6.281 265.522 -5.444 246.556 -4.735 227.590 -4.114 218.107 -3.604 208.625 -3.155
199.141 -2.772 189.659 -2.450 170.693 -2.162 170.693 -1.924 161.209 -1.719 151.727 -1.530 151.727 -1.380 142.244 -1.231 132.761 -1.114 132.761 -1.015
123.278 -0.915 123.278 -0.832 113.795 -0.760 113.795 -0.687 104.313 -0.632 104.312 -0.577 104.312 -0.527 94.829 -0.482 94.830 -0.444 94.829 -0.399
94.829 -0.377 85.346 -0.333 75.863 -0.310 85.346 -0.277 75.864 -0.255 75.863 -0.233 75.863 -0.216 75.864 -0.188 75.863 -0.172 75.864 -0.150
75.863 -0.144 85.346 -0.116 85.346 -0.111 85.346 -0.089 104.312 -0.089 113.795 -0.067 113.795 -0.061 132.761 -0.050 151.727 -0.039 161.210 -0.039
170.693 -0.028 189.659 -0.022 199.141 -0.011 208.624 -0.017 218.107 -0.011 218.107 -0.011 227.590 -0.006 218.107 -0.000 208.624 -0.006 199.142 -0.000
180.176 -0.000 161.210 -0.000 132.761 -0.000 104.312 -0.000 85.346 -0.000 47.415 -0.000 37.932 -0.000 18.966 -0.000 18.966 -0.000 6249.600 7745.994 99 92 sw
2 lc
[1 114] 0 sd
0 b
2879 719 2879 23761 28801 23761 28801 719 clp
0 g
92 sw
0 lc
0 lj
[] 0 sd
6250 3254 m
6250 3715 l
s
23 sw
8146 3254 m
8146 3531 l
s
10043 3254 m
10043 3531 l
s
11939 3254 m
11939 3531 l
s
13836 3254 m
13836 3531 l
s
92 sw
15733 3254 m
15733 3715 l
s
23 sw
17629 3254 m
17629 3531 l
s
19526 3254 m
19526 3531 l
s
21422 3254 m
21422 3531 l
s
23319 3254 m
23319 3531 l
s
92 sw
25215 3254 m
25215 3715 l
s
2 lc
6250 3254 m
25690 3254 l
s
-2071 -0 0 627 2071 -0 14934 1706 3 5 sw
1 1 fb
921.6 fhb
0 g
14934 1706 m
(x) sh
15665 1706 m
([) sh
15929 1706 m
(m) sh
16741 1706 m
(]) sh
23 sw
0 lc
6250 3964 m
6526 3964 l
s
92 sw
6250 6803 m
6710 6803 l
s
23 sw
6250 9641 m
6526 9641 l
s
6250 12480 m
6526 12480 l
s
6250 15318 m
6526 15318 l
s
6250 18157 m
6526 18157 l
s
92 sw
6250 20995 m
6710 20995 l
s
2 lc
6250 3254 m
6250 20995 l
s
0 -4309 -627 -0 0 4309 4694 9971 3 5 sw
1 1 fb
921.6 fhb
0 g
4694 9971 m
gs 90.0 ro
(p) sh
gr
552.96 fhb
4971 10519 m
gs 90.0 ro
(g) sh
gr
921.6 fhb
4694 10848 m
gs 90.0 ro
(,) sh
gr
4694 11355 m
gs 90.0 ro
(p) sh
gr
552.96 fhb
4971 11903 m
gs 90.0 ro
(w) sh
gr
921.6 fhb
4694 12574 m
gs 90.0 ro
([) sh
gr
4694 12837 m
gs 90.0 ro
(P) sh
gr
4694 13487 m
gs 90.0 ro
(a) sh
gr
4694 14015 m
gs 90.0 ro
(]) sh
gr
-389 -0 0 470 389 -0 6055 2554 3 1 1 fb
691.2 fhn
0 g
6055 2554 m
(0) sh
-389 -0 0 470 389 -0 15538 2554 3 1 1 fb
691.2 fhn
0 g
15538 2554 m
(1) sh
-389 -0 0 470 389 -0 25021 2554 3 1 1 fb
691.2 fhn
0 g
25021 2554 m
(2) sh
-2333 -0 0 470 2333 -0 3658 6568 3 1 1 fb
691.2 fhn
0 g
3658 6568 m
(1) sh
4046 6568 m
(0) sh
4435 6568 m
(0) sh
4824 6568 m
(0) sh
5213 6568 m
(0) sh
5602 6568 m
(0) sh
-2333 -0 0 470 2333 -0 3658 20760 3 1 1 fb
691.2 fhn
0 g
3658 20760 m
(1) sh
4046 20760 m
(2) sh
4435 20760 m
(0) sh
4824 20760 m
(0) sh
5213 20760 m
(0) sh
5602 20760 m
(0) sh
0 7603 8888 -0 0 -7603 15753 16620 3 23 sw
1 0 fb
15707 8971 15707 16666 24687 16666 24687 8971 clp
2879 719 2879 23761 28801 23761 28801 719 clp
829.44 fhb
0 g
20848 14387 m
(p) sh
497.664 fhb
21341 14138 m
(g) sh
829.44 fhb
21857 14387 m
(n) sh
22350 14387 m
(u) sh
22844 14387 m
(m) sh
23575 14387 m
(.) sh
829.44 fhb
20848 12894 m
(p) sh
497.664 fhb
21341 12645 m
(g) sh
829.44 fhb
21857 12894 m
(a) sh
22332 12894 m
(n) sh
22825 12894 m
(a) sh
23300 12894 m
(l) sh
23501 12894 m
(.) sh
829.44 fhb
20848 11401 m
(p) sh
497.664 fhb
21341 11152 m
(w) sh
829.44 fhb
21945 11401 m
(n) sh
22438 11401 m
(u) sh
22931 11401 m
(m) sh
23662 11401 m
(.) sh
829.44 fhb
20848 9908 m
(p) sh
497.664 fhb
21341 9659 m
(w) sh
829.44 fhb
21945 9908 m
(a) sh
22420 9908 m
(n) sh
22913 9908 m
(a) sh
23388 9908 m
(l) sh
23589 9908 m
(.) sh
92 sw
0 lc
0 lj
[461] 0 sd
16494 14635 m
20226 14635 l
s
23 sw
[] 0 sd
16494 13142 m
20226 13142 l
s
46 sw
[461 184 92 184] 0 sd
16494 11649 m
20226 11649 l
s
92 sw
2 lc
[1 114] 0 sd
16494 10156 m
20226 10156 l
s
gr end
showpage
