<?xml version="1.0"?>
<VTKFile type="UnstructuredGrid" version="0.1" byte_order="LittleEndian">
  <UnstructuredGrid>
    <Piece NumberOfCells="120" NumberOfPoints="242">
      <PointData Scalars="S_liq">
        <DataArray type="Float32" Name="S_liq" NumberOfComponents="1" format="ascii">
          0.99 0.948638 0.99 0.948638 0.930209 0.930209 0.918077 0.918077 0.908841 0.908841 0.901273 0.901273
          0.894791 0.894791 0.889077 0.889077 0.883934 0.883934 0.879236 0.879236 0.874892 0.874892 0.870838 0.870838
          0.867027 0.867027 0.863421 0.863421 0.859992 0.859992 0.856715 0.856715 0.853573 0.853573 0.85055 0.85055
          0.847632 0.847632 0.844808 0.844808 0.84207 0.84207 0.839409 0.839409 0.836817 0.836817 0.83429 0.83429
          0.831821 0.831821 0.829406 0.829406 0.827041 0.827041 0.824722 0.824722 0.822445 0.822445 0.820208 0.820208
          0.818008 0.818008 0.815842 0.815842 0.813708 0.813708 0.811604 0.811604 0.809529 0.809529 0.80748 0.80748
          0.805456 0.805456 0.803456 0.803456 0.801477 0.801477 0.79952 0.79952 0.797583 0.797583 0.795664 0.795664
          0.793764 0.793764 0.79188 0.79188 0.790013 0.790013 0.788161 0.788161 0.786324 0.786324 0.784501 0.784501
          0.782692 0.782692 0.780896 0.780896 0.779112 0.779112 0.77734 0.77734 0.77558 0.77558 0.773832 0.773832
          0.772094 0.772094 0.770367 0.770367 0.768651 0.768651 0.766945 0.766945 0.765249 0.765249 0.763563 0.763563
          0.761886 0.761886 0.76022 0.76022 0.758563 0.758563 0.756917 0.756917 0.755279 0.755279 0.753652 0.753652
          0.752035 0.752035 0.750428 0.750428 0.748831 0.748831 0.747244 0.747244 0.745669 0.745669 0.744104 0.744104
          0.742551 0.742551 0.741009 0.741009 0.73948 0.73948 0.737963 0.737963 0.736459 0.736459 0.734969 0.734969
          0.733492 0.733492 0.732031 0.732031 0.730585 0.730585 0.729155 0.729155 0.727741 0.727741 0.726345 0.726345
          0.724968 0.724968 0.72361 0.72361 0.722272 0.722272 0.720955 0.720955 0.71966 0.71966 0.718388 0.718388
          0.717139 0.717139 0.715916 0.715916 0.714719 0.714719 0.713548 0.713548 0.712406 0.712406 0.711294 0.711294
          0.710212 0.710212 0.709162 0.709162 0.708145 0.708145 0.707161 0.707161 0.706213 0.706213 0.705301 0.705301
          0.704427 0.704427 0.703589 0.703589 0.702787 0.702787 0.702024 0.702024 0.701301 0.701301 0.700619 0.700619
          0.699977 0.699977 0.699372 0.699372 0.698804 0.698804 0.698276 0.698276 0.697787 0.697787 0.697332 0.697332
          0.696907 0.696907 0.696517 0.696517 0.696158 0.696158 0.695813 0.695813 0.695495 0.695495 0.695187 0.695187
          0.694875 0.694875
        </DataArray>
        <DataArray type="Float32" Name="p_liq" NumberOfComponents="1" format="ascii">
          100691 100680 100691 100680 100667 100667 100653 100653 100639 100639 100624 100624
          100609 100609 100593 100593 100577 100577 100561 100561 100545 100545 100528 100528
          100511 100511 100493 100493 100476 100476 100458 100458 100440 100440 100422 100422
          100404 100404 100386 100386 100367 100367 100348 100348 100329 100329 100310 100310
          100291 100291 100272 100272 100252 100252 100233 100233 100213 100213 100193 100193
          100173 100173 100153 100153 100133 100133 100113 100113 100092 100092 100072 100072
          100052 100052 100031 100031 100010 100010 99989.4 99989.4 99968.5 99968.5 99947.5 99947.5
          99926.5 99926.5 99905.4 99905.4 99884.3 99884.3 99863.1 99863.1 99841.8 99841.8 99820.5 99820.5
          99799.1 99799.1 99777.7 99777.7 99756.3 99756.3 99734.8 99734.8 99713.3 99713.3 99691.8 99691.8
          99670.3 99670.3 99648.7 99648.7 99627.1 99627.1 99605.6 99605.6 99584 99584 99562.5 99562.5
          99540.9 99540.9 99519.4 99519.4 99498 99498 99476.5 99476.5 99455.1 99455.1 99433.8 99433.8
          99412.5 99412.5 99391.2 99391.2 99370.1 99370.1 99349 99349 99328.1 99328.1 99307.2 99307.2
          99286.4 99286.4 99265.8 99265.8 99245.3 99245.3 99224.9 99224.9 99204.7 99204.7 99184.7 99184.7
          99164.8 99164.8 99145.1 99145.1 99125.6 99125.6 99106.4 99106.4 99087.4 99087.4 99068.6 99068.6
          99050 99050 99031.8 99031.8 99013.8 99013.8 98996.2 98996.2 98978.8 98978.8 98961.8 98961.8
          98945.2 98945.2 98928.9 98928.9 98913 98913 98897.5 98897.5 98882.4 98882.4 98867.8 98867.8
          98853.6 98853.6 98839.8 98839.8 98826.6 98826.6 98813.9 98813.9 98801.7 98801.7 98790.1 98790.1
          98778.9 98778.9 98768.4 98768.4 98758.5 98758.5 98749.1 98749.1 98740.3 98740.3 98732.2 98732.2
          98724.6 98724.6 98717.7 98717.7 98711.4 98711.4 98705.7 98705.7 98700.7 98700.7 98696.2 98696.2
          98692.4 98692.4 98689.2 98689.2 98686.7 98686.7 98684.7 98684.7 98683.2 98683.2 98682.4 98682.4
          98682.1 98682.1
        </DataArray>
        <DataArray type="Float32" Name="rho_liq" NumberOfComponents="1" format="ascii">
          978.569 978.558 978.569 978.558 978.547 978.547 978.534 978.534 978.521 978.521 978.506 978.506
          978.491 978.491 978.476 978.476 978.459 978.459 978.442 978.442 978.424 978.424 978.406 978.406
          978.388 978.388 978.368 978.368 978.349 978.349 978.329 978.329 978.309 978.309 978.289 978.289
          978.269 978.269 978.248 978.248 978.228 978.228 978.208 978.208 978.188 978.188 978.169 978.169
          978.15 978.15 978.131 978.131 978.112 978.112 978.094 978.094 978.077 978.077 978.06 978.06
          978.044 978.044 978.028 978.028 978.013 978.013 977.998 977.998 977.984 977.984 977.971 977.971
          977.958 977.958 977.946 977.946 977.934 977.934 977.923 977.923 977.913 977.913 977.903 977.903
          977.894 977.894 977.885 977.885 977.877 977.877 977.869 977.869 977.862 977.862 977.855 977.855
          977.849 977.849 977.843 977.843 977.837 977.837 977.832 977.832 977.827 977.827 977.822 977.822
          977.818 977.818 977.813 977.813 977.81 977.81 977.806 977.806 977.802 977.802 977.799 977.799
          977.795 977.795 977.792 977.792 977.788 977.788 977.785 977.785 977.781 977.781 977.778 977.778
          977.774 977.774 977.77 977.77 977.765 977.765 977.76 977.76 977.755 977.755 977.749 977.749
          977.742 977.742 977.735 977.735 977.727 977.727 977.717 977.717 977.706 977.706 977.694 977.694
          977.68 977.68 977.664 977.664 977.646 977.646 977.625 977.625 977.602 977.602 977.575 977.575
          977.544 977.544 977.509 977.509 977.47 977.47 977.425 977.425 977.374 977.374 977.315 977.315
          977.248 977.248 977.173 977.173 977.088 977.088 976.993 976.993 976.887 976.887 976.768 976.768
          976.635 976.635 976.487 976.487 976.323 976.323 976.141 976.141 975.94 975.94 975.718 975.718
          975.474 975.474 975.203 975.203 974.901 974.901 974.571 974.571 974.211 974.211 973.821 973.821
          973.4 973.4 972.937 972.937 972.433 972.433 971.892 971.892 971.314 971.314 970.69 970.69
          970.018 970.018 969.306 969.306 968.55 968.55 967.74 967.74 966.891 966.891 965.995 965.995
          965.05 965.05
        </DataArray>
        <DataArray type="Float32" Name="mob_liq" NumberOfComponents="1" format="ascii">
          2344.63 2015.59 2344.63 2015.59 1879.79 1879.79 1794.01 1794.01 1730.64 1730.64 1679.95 1679.95
          1637.45 1637.45 1600.66 1600.66 1568.11 1568.11 1538.83 1538.83 1512.15 1512.15 1487.59 1487.59
          1464.79 1464.79 1443.48 1443.48 1423.44 1423.44 1404.51 1404.51 1386.54 1386.54 1369.41 1369.41
          1353.04 1353.04 1337.35 1337.35 1322.25 1322.25 1307.7 1307.7 1293.64 1293.64 1280.03 1280.03
          1266.82 1266.82 1253.99 1253.99 1241.5 1241.5 1229.33 1229.33 1217.45 1217.45 1205.85 1205.85
          1194.49 1194.49 1183.37 1183.37 1172.47 1172.47 1161.77 1161.77 1151.27 1151.27 1140.95 1140.95
          1130.8 1130.8 1120.82 1120.82 1110.99 1110.99 1101.3 1101.3 1091.76 1091.76 1082.35 1082.35
          1073.06 1073.06 1063.9 1063.9 1054.86 1054.86 1045.93 1045.93 1037.11 1037.11 1028.4 1028.4
          1019.79 1019.79 1011.28 1011.28 1002.86 1002.86 994.545 994.545 986.32 986.32 978.186 978.186
          970.141 970.141 962.185 962.185 954.315 954.315 946.53 946.53 938.83 938.83 931.215 931.215
          923.683 923.683 916.234 916.234 908.869 908.869 901.587 901.587 894.39 894.39 887.276 887.276
          880.248 880.248 873.306 873.306 866.452 866.452 859.688 859.688 853.014 853.014 846.434 846.434
          839.95 839.95 833.565 833.565 827.283 827.283 821.107 821.107 815.041 815.041 809.09 809.09
          803.259 803.259 797.555 797.555 791.984 791.984 786.552 786.552 781.268 781.268 776.141 776.141
          771.179 771.179 766.393 766.393 761.796 761.796 757.398 757.398 753.209 753.209 749.166 749.166
          745.357 745.357 741.797 741.797 738.504 738.504 735.496 735.496 732.795 732.795 730.422 730.422
          728.401 728.401 726.756 726.756 725.517 725.517 724.711 724.711 724.371 724.371 724.53 724.53
          725.224 725.224 726.35 726.35 727.831 727.831 729.925 729.925 732.674 732.674 736.124 736.124
          740.322 740.322 745.016 745.016 750.215 750.215 756.247 756.247 763.165 763.165 770.669 770.669
          778.676 778.676 787.637 787.637 797.4 797.4 807.423 807.423 818.429 818.429 829.969 829.969
          841.841 841.841
        </DataArray>
        <DataArray type="Float32" Name="S_gas" NumberOfComponents="1" format="ascii">
          0.01 0.0513622 0.01 0.0513622 0.0697912 0.0697912 0.0819232 0.0819232 0.0911588 0.0911588 0.0987274 0.0987274
          0.105209 0.105209 0.110923 0.110923 0.116066 0.116066 0.120764 0.120764 0.125108 0.125108 0.129162 0.129162
          0.132973 0.132973 0.136579 0.136579 0.140008 0.140008 0.143285 0.143285 0.146427 0.146427 0.14945 0.14945
          0.152368 0.152368 0.155192 0.155192 0.15793 0.15793 0.160591 0.160591 0.163183 0.163183 0.16571 0.16571
          0.168179 0.168179 0.170594 0.170594 0.172959 0.172959 0.175278 0.175278 0.177555 0.177555 0.179792 0.179792
          0.181992 0.181992 0.184158 0.184158 0.186292 0.186292 0.188396 0.188396 0.190471 0.190471 0.19252 0.19252
          0.194544 0.194544 0.196544 0.196544 0.198523 0.198523 0.20048 0.20048 0.202417 0.202417 0.204336 0.204336
          0.206236 0.206236 0.20812 0.20812 0.209987 0.209987 0.211839 0.211839 0.213676 0.213676 0.215499 0.215499
          0.217308 0.217308 0.219104 0.219104 0.220888 0.220888 0.22266 0.22266 0.22442 0.22442 0.226168 0.226168
          0.227906 0.227906 0.229633 0.229633 0.231349 0.231349 0.233055 0.233055 0.234751 0.234751 0.236437 0.236437
          0.238113 0.238113 0.23978 0.23978 0.241437 0.241437 0.243083 0.243083 0.244721 0.244721 0.246348 0.246348
          0.247965 0.247965 0.249572 0.249572 0.251169 0.251169 0.252756 0.252756 0.254331 0.254331 0.255896 0.255896
          0.257449 0.257449 0.258991 0.258991 0.26052 0.26052 0.262037 0.262037 0.263541 0.263541 0.265031 0.265031
          0.266508 0.266508 0.267969 0.267969 0.269415 0.269415 0.270845 0.270845 0.272259 0.272259 0.273655 0.273655
          0.275032 0.275032 0.27639 0.27639 0.277728 0.277728 0.279045 0.279045 0.28034 0.28034 0.281612 0.281612
          0.28286 0.28286 0.284084 0.284084 0.285281 0.285281 0.286452 0.286452 0.287594 0.287594 0.288706 0.288706
          0.289788 0.289788 0.290838 0.290838 0.291855 0.291855 0.292839 0.292839 0.293787 0.293787 0.294699 0.294699
          0.295573 0.295573 0.296411 0.296411 0.297213 0.297213 0.297976 0.297976 0.298699 0.298699 0.299381 0.299381
          0.300023 0.300023 0.300628 0.300628 0.301196 0.301196 0.301724 0.301724 0.302213 0.302213 0.302668 0.302668
          0.303093 0.303093 0.303483 0.303483 0.303842 0.303842 0.304187 0.304187 0.304505 0.304505 0.304813 0.304813
          0.305125 0.305125
        </DataArray>
        <DataArray type="Float32" Name="p_gas" NumberOfComponents="1" format="ascii">
          101300 103587 101300 103587 104488 104488 105042 105042 105442 105442 105755 105755
          106013 106013 106232 106232 106422 106422 106591 106591 106742 106742 106880 106880
          107005 107005 107120 107120 107227 107227 107326 107326 107419 107419 107506 107506
          107587 107587 107664 107664 107737 107737 107807 107807 107872 107872 107935 107935
          107995 107995 108052 108052 108106 108106 108159 108159 108209 108209 108257 108257
          108303 108303 108347 108347 108390 108390 108431 108431 108470 108470 108509 108509
          108546 108546 108581 108581 108615 108615 108649 108649 108681 108681 108712 108712
          108742 108742 108771 108771 108799 108799 108826 108826 108853 108853 108878 108878
          108903 108903 108927 108927 108950 108950 108973 108973 108995 108995 109016 109016
          109037 109037 109057 109057 109076 109076 109095 109095 109113 109113 109131 109131
          109148 109148 109165 109165 109181 109181 109197 109197 109212 109212 109227 109227
          109242 109242 109256 109256 109269 109269 109282 109282 109295 109295 109308 109308
          109320 109320 109331 109331 109343 109343 109353 109353 109364 109364 109374 109374
          109384 109384 109394 109394 109403 109403 109412 109412 109421 109421 109430 109430
          109438 109438 109446 109446 109453 109453 109461 109461 109468 109468 109475 109475
          109481 109481 109488 109488 109494 109494 109500 109500 109506 109506 109511 109511
          109517 109517 109522 109522 109527 109527 109532 109532 109536 109536 109541 109541
          109545 109545 109549 109549 109553 109553 109557 109557 109561 109561 109564 109564
          109568 109568 109571 109571 109575 109575 109578 109578 109581 109581 109585 109585
          109588 109588 109591 109591 109595 109595 109599 109599 109603 109603 109607 109607
          109612 109612
        </DataArray>
        <DataArray type="Float32" Name="rho_gas" NumberOfComponents="1" format="ascii">
          0.920372 0.943529 0.920372 0.943529 0.952557 0.952557 0.958027 0.958027 0.961915 0.961915 0.964912 0.964912
          0.967333 0.967333 0.969351 0.969351 0.971068 0.971068 0.972552 0.972552 0.97385 0.97385 0.974996 0.974996
          0.976014 0.976014 0.976925 0.976925 0.977743 0.977743 0.978481 0.978481 0.97915 0.97915 0.979758 0.979758
          0.980313 0.980313 0.98082 0.98082 0.981286 0.981286 0.981716 0.981716 0.982113 0.982113 0.982482 0.982482
          0.982825 0.982825 0.983146 0.983146 0.983447 0.983447 0.983732 0.983732 0.984001 0.984001 0.984257 0.984257
          0.984501 0.984501 0.984735 0.984735 0.98496 0.98496 0.985177 0.985177 0.985387 0.985387 0.985592 0.985592
          0.985791 0.985791 0.985985 0.985985 0.986176 0.986176 0.986363 0.986363 0.986546 0.986546 0.986727 0.986727
          0.986905 0.986905 0.98708 0.98708 0.987253 0.987253 0.987424 0.987424 0.987592 0.987592 0.987758 0.987758
          0.987922 0.987922 0.988084 0.988084 0.988243 0.988243 0.9884 0.9884 0.988554 0.988554 0.988706 0.988706
          0.988854 0.988854 0.989 0.989 0.989143 0.989143 0.989282 0.989282 0.989418 0.989418 0.98955 0.98955
          0.989677 0.989677 0.9898 0.9898 0.989918 0.989918 0.990031 0.990031 0.990138 0.990138 0.990238 0.990238
          0.990331 0.990331 0.990417 0.990417 0.990494 0.990494 0.990561 0.990561 0.990617 0.990617 0.990662 0.990662
          0.990693 0.990693 0.990709 0.990709 0.990709 0.990709 0.990689 0.990689 0.990649 0.990649 0.990584 0.990584
          0.990493 0.990493 0.990372 0.990372 0.990217 0.990217 0.990024 0.990024 0.989789 0.989789 0.989506 0.989506
          0.989169 0.989169 0.988772 0.988772 0.988308 0.988308 0.987769 0.987769 0.987143 0.987143 0.986362 0.986362
          0.98547 0.98547 0.984454 0.984454 0.983302 0.983302 0.982 0.982 0.980534 0.980534 0.978887 0.978887
          0.977044 0.977044 0.974987 0.974987 0.972697 0.972697 0.970158 0.970158 0.967349 0.967349 0.964251 0.964251
          0.960847 0.960847 0.956987 0.956987 0.952549 0.952549 0.947713 0.947713 0.942462 0.942462 0.93678 0.93678
          0.930653 0.930653 0.923765 0.923765 0.916076 0.916076 0.907865 0.907865 0.899134 0.899134 0.889501 0.889501
          0.878842 0.878842 0.867629 0.867629 0.855649 0.855649 0.842261 0.842261 0.82834 0.82834 0.813343 0.813343
          0.797103 0.797103
        </DataArray>
        <DataArray type="Float32" Name="mob_gas" NumberOfComponents="1" format="ascii">
          0.0921684 12.4465 0.0921684 12.4465 31.1876 31.1876 50.4074 50.4074 69.4166 69.4166 88.1519 88.1519
          106.651 106.651 124.966 124.966 143.142 143.142 161.222 161.222 179.237 179.237 197.218 197.218
          215.187 215.187 233.166 233.166 251.173 251.173 269.223 269.223 287.33 287.33 305.506 305.506
          323.762 323.762 342.109 342.109 360.554 360.554 379.108 379.108 397.776 397.776 416.566 416.566
          435.486 435.486 454.539 454.539 473.734 473.734 493.074 493.074 512.566 512.566 532.213 532.213
          552.021 552.021 571.994 571.994 592.136 592.136 612.451 612.451 632.944 632.944 653.617 653.617
          674.475 674.475 695.52 695.52 716.757 716.757 738.188 738.188 759.817 759.817 781.646 781.646
          803.678 803.678 825.915 825.915 848.361 848.361 871.018 871.018 893.887 893.887 916.971 916.971
          940.271 940.271 963.79 963.79 987.527 987.527 1011.49 1011.49 1035.66 1035.66 1060.06 1060.06
          1084.69 1084.69 1109.53 1109.53 1134.6 1134.6 1159.89 1159.89 1185.39 1185.39 1211.12 1211.12
          1237.06 1237.06 1263.21 1263.21 1289.58 1289.58 1316.15 1316.15 1342.93 1342.93 1369.9 1369.9
          1397.07 1397.07 1424.42 1424.42 1451.95 1451.95 1479.66 1479.66 1507.54 1507.54 1535.57 1535.57
          1563.75 1563.75 1592.06 1592.06 1620.5 1620.5 1649.06 1649.06 1677.72 1677.72 1706.46 1706.46
          1735.28 1735.28 1764.16 1764.16 1793.08 1793.08 1822.02 1822.02 1850.97 1850.97 1879.92 1879.92
          1908.83 1908.83 1937.69 1937.69 1966.49 1966.49 1995.2 1995.2 2023.81 2023.81 2052.47 2052.47
          2081.01 2081.01 2109.42 2109.42 2137.68 2137.68 2165.78 2165.78 2193.7 2193.7 2221.42 2221.42
          2248.94 2248.94 2276.25 2276.25 2303.35 2303.35 2330.21 2330.21 2356.86 2356.86 2383.27 2383.27
          2409.47 2409.47 2435.91 2435.91 2463 2463 2490.07 2490.07 2517.14 2517.14 2544.25 2544.25
          2571.43 2571.43 2599.94 2599.94 2630.01 2630.01 2660.58 2660.58 2691.73 2691.73 2725.24 2725.24
          2761.84 2761.84 2799.72 2799.72 2840.15 2840.15 2886.64 2886.64 2935.47 2935.47 2990.12 2990.12
          3052.41 3052.41
        </DataArray>
        <DataArray type="Float32" Name="pc" NumberOfComponents="1" format="ascii">
          609.117 2906.71 609.117 2906.71 3821.22 3821.22 4388.55 4388.55 4802.56 4802.56 5130.62 5130.62
          5403.67 5403.67 5638.48 5638.48 5845.11 5845.11 6030.1 6030.1 6197.92 6197.92 6351.78 6351.78
          6494.07 6494.07 6626.58 6626.58 6750.73 6750.73 6867.65 6867.65 6978.25 6978.25 7083.26 7083.26
          7183.31 7183.31 7278.91 7278.91 7370.51 7370.51 7458.49 7458.49 7543.17 7543.17 7624.82 7624.82
          7703.71 7703.71 7780.05 7780.05 7854.03 7854.03 7925.81 7925.81 7995.56 7995.56 8063.4 8063.4
          8129.47 8129.47 8193.86 8193.86 8256.69 8256.69 8318.04 8318.04 8377.99 8377.99 8436.63 8436.63
          8494.01 8494.01 8550.21 8550.21 8605.28 8605.28 8659.28 8659.28 8712.25 8712.25 8764.24 8764.24
          8815.29 8815.29 8865.45 8865.45 8914.74 8914.74 8963.21 8963.21 9010.88 9010.88 9057.78 9057.78
          9103.94 9103.94 9149.38 9149.38 9194.13 9194.13 9238.21 9238.21 9281.64 9281.64 9324.43 9324.43
          9366.61 9366.61 9408.19 9408.19 9449.18 9449.18 9489.6 9489.6 9529.46 9529.46 9568.76 9568.76
          9607.53 9607.53 9645.77 9645.77 9683.49 9683.49 9720.7 9720.7 9757.39 9757.39 9793.58 9793.58
          9829.28 9829.28 9864.48 9864.48 9899.2 9899.2 9933.42 9933.42 9967.16 9967.16 10000.4 10000.4
          10033.2 10033.2 10065.5 10065.5 10097.2 10097.2 10128.6 10128.6 10159.4 10159.4 10189.7 10189.7
          10219.5 10219.5 10248.8 10248.8 10277.6 10277.6 10305.9 10305.9 10333.7 10333.7 10360.9 10360.9
          10387.7 10387.7 10413.8 10413.8 10439.4 10439.4 10464.5 10464.5 10489 10489 10512.9 10512.9
          10536.2 10536.2 10558.9 10558.9 10581 10581 10602.5 10602.5 10623.3 10623.3 10643.5 10643.5
          10663.1 10663.1 10682 10682 10700.2 10700.2 10717.7 10717.7 10734.5 10734.5 10750.5 10750.5
          10765.9 10765.9 10780.6 10780.6 10794.6 10794.6 10807.8 10807.8 10820.3 10820.3 10832.1 10832.1
          10843.1 10843.1 10853.5 10853.5 10863.2 10863.2 10872.2 10872.2 10880.5 10880.5 10888.3 10888.3
          10895.5 10895.5 10902.1 10902.1 10908.1 10908.1 10913.9 10913.9 10919.3 10919.3 10924.5 10924.5
          10929.7 10929.7
        </DataArray>
        <DataArray type="Float32" Name="porosity" NumberOfComponents="1" format="ascii">
          0.4 0.4 0.4 0.4 0.4 0.4 0.4 0.4 0.4 0.4 0.4 0.4
          0.4 0.4 0.4 0.4 0.4 0.4 0.4 0.4 0.4 0.4 0.4 0.4
          0.4 0.4 0.4 0.4 0.4 0.4 0.4 0.4 0.4 0.4 0.4 0.4
          0.4 0.4 0.4 0.4 0.4 0.4 0.4 0.4 0.4 0.4 0.4 0.4
          0.4 0.4 0.4 0.4 0.4 0.4 0.4 0.4 0.4 0.4 0.4 0.4
          0.4 0.4 0.4 0.4 0.4 0.4 0.4 0.4 0.4 0.4 0.4 0.4
          0.4 0.4 0.4 0.4 0.4 0.4 0.4 0.4 0.4 0.4 0.4 0.4
          0.4 0.4 0.4 0.4 0.4 0.4 0.4 0.4 0.4 0.4 0.4 0.4
          0.4 0.4 0.4 0.4 0.4 0.4 0.4 0.4 0.4 0.4 0.4 0.4
          0.4 0.4 0.4 0.4 0.4 0.4 0.4 0.4 0.4 0.4 0.4 0.4
          0.4 0.4 0.4 0.4 0.4 0.4 0.4 0.4 0.4 0.4 0.4 0.4
          0.4 0.4 0.4 0.4 0.4 0.4 0.4 0.4 0.4 0.4 0.4 0.4
          0.4 0.4 0.4 0.4 0.4 0.4 0.4 0.4 0.4 0.4 0.4 0.4
          0.4 0.4 0.4 0.4 0.4 0.4 0.4 0.4 0.4 0.4 0.4 0.4
          0.4 0.4 0.4 0.4 0.4 0.4 0.4 0.4 0.4 0.4 0.4 0.4
          0.4 0.4 0.4 0.4 0.4 0.4 0.4 0.4 0.4 0.4 0.4 0.4
          0.4 0.4 0.4 0.4 0.4 0.4 0.4 0.4 0.4 0.4 0.4 0.4
          0.4 0.4 0.4 0.4 0.4 0.4 0.4 0.4 0.4 0.4 0.4 0.4
          0.4 0.4 0.4 0.4 0.4 0.4 0.4 0.4 0.4 0.4 0.4 0.4
          0.4 0.4 0.4 0.4 0.4 0.4 0.4 0.4 0.4 0.4 0.4 0.4
          0.4 0.4
        </DataArray>
        <DataArray type="Float32" Name="x^H2O_liq" NumberOfComponents="1" format="ascii">
          0.999993 0.999993 0.999993 0.999993 0.999993 0.999993 0.999993 0.999993 0.999993 0.999993 0.999993 0.999993
          0.999993 0.999993 0.999993 0.999993 0.999993 0.999993 0.999993 0.999993 0.999993 0.999993 0.999993 0.999993
          0.999993 0.999993 0.999993 0.999993 0.999993 0.999993 0.999993 0.999993 0.999993 0.999993 0.999993 0.999993
          0.999993 0.999993 0.999993 0.999993 0.999993 0.999993 0.999993 0.999993 0.999993 0.999993 0.999993 0.999993
          0.999992 0.999992 0.999992 0.999992 0.999992 0.999992 0.999992 0.999992 0.999992 0.999992 0.999992 0.999992
          0.999992 0.999992 0.999992 0.999992 0.999992 0.999992 0.999992 0.999992 0.999992 0.999992 0.999992 0.999992
          0.999992 0.999992 0.999992 0.999992 0.999992 0.999992 0.999992 0.999992 0.999992 0.999992 0.999992 0.999992
          0.999992 0.999992 0.999992 0.999992 0.999992 0.999992 0.999992 0.999992 0.999992 0.999992 0.999992 0.999992
          0.999992 0.999992 0.999992 0.999992 0.999992 0.999992 0.999992 0.999992 0.999992 0.999992 0.999992 0.999992
          0.999992 0.999992 0.999992 0.999992 0.999992 0.999992 0.999992 0.999992 0.999992 0.999992 0.999992 0.999992
          0.999992 0.999992 0.999992 0.999992 0.999992 0.999992 0.999992 0.999992 0.999992 0.999992 0.999992 0.999992
          0.999992 0.999992 0.999992 0.999992 0.999992 0.999992 0.999992 0.999992 0.999992 0.999992 0.999992 0.999992
          0.999992 0.999992 0.999992 0.999992 0.999992 0.999992 0.999992 0.999992 0.999992 0.999992 0.999992 0.999992
          0.999992 0.999992 0.999992 0.999992 0.999992 0.999992 0.999993 0.999993 0.999993 0.999993 0.999993 0.999993
          0.999993 0.999993 0.999993 0.999993 0.999993 0.999993 0.999993 0.999993 0.999993 0.999993 0.999993 0.999993
          0.999993 0.999993 0.999993 0.999993 0.999993 0.999993 0.999993 0.999993 0.999993 0.999993 0.999993 0.999993
          0.999993 0.999993 0.999993 0.999993 0.999993 0.999993 0.999993 0.999993 0.999993 0.999993 0.999993 0.999993
          0.999993 0.999993 0.999993 0.999993 0.999993 0.999993 0.999993 0.999993 0.999993 0.999993 0.999994 0.999994
          0.999994 0.999994 0.999994 0.999994 0.999994 0.999994 0.999994 0.999994 0.999994 0.999994 0.999995 0.999995
          0.999995 0.999995 0.999995 0.999995 0.999995 0.999995 0.999996 0.999996 0.999996 0.999996 0.999996 0.999996
          0.999996 0.999996
        </DataArray>
        <DataArray type="Float32" Name="X^H2O_liq" NumberOfComponents="1" format="ascii">
          0.999989 0.999988 0.999989 0.999988 0.999988 0.999988 0.999988 0.999988 0.999988 0.999988 0.999988 0.999988
          0.999988 0.999988 0.999988 0.999988 0.999988 0.999988 0.999988 0.999988 0.999988 0.999988 0.999988 0.999988
          0.999988 0.999988 0.999988 0.999988 0.999988 0.999988 0.999988 0.999988 0.999988 0.999988 0.999988 0.999988
          0.999988 0.999988 0.999988 0.999988 0.999988 0.999988 0.999988 0.999988 0.999988 0.999988 0.999988 0.999988
          0.999988 0.999988 0.999988 0.999988 0.999988 0.999988 0.999988 0.999988 0.999988 0.999988 0.999988 0.999988
          0.999988 0.999988 0.999988 0.999988 0.999988 0.999988 0.999988 0.999988 0.999988 0.999988 0.999988 0.999988
          0.999988 0.999988 0.999988 0.999988 0.999988 0.999988 0.999988 0.999988 0.999988 0.999988 0.999988 0.999988
          0.999988 0.999988 0.999988 0.999988 0.999988 0.999988 0.999988 0.999988 0.999988 0.999988 0.999988 0.999988
          0.999988 0.999988 0.999988 0.999988 0.999988 0.999988 0.999988 0.999988 0.999988 0.999988 0.999988 0.999988
          0.999988 0.999988 0.999988 0.999988 0.999988 0.999988 0.999988 0.999988 0.999988 0.999988 0.999988 0.999988
          0.999988 0.999988 0.999988 0.999988 0.999988 0.999988 0.999988 0.999988 0.999988 0.999988 0.999988 0.999988
          0.999988 0.999988 0.999988 0.999988 0.999988 0.999988 0.999988 0.999988 0.999988 0.999988 0.999988 0.999988
          0.999988 0.999988 0.999988 0.999988 0.999988 0.999988 0.999988 0.999988 0.999988 0.999988 0.999988 0.999988
          0.999988 0.999988 0.999988 0.999988 0.999988 0.999988 0.999988 0.999988 0.999988 0.999988 0.999988 0.999988
          0.999988 0.999988 0.999988 0.999988 0.999988 0.999988 0.999988 0.999988 0.999988 0.999988 0.999988 0.999988
          0.999988 0.999988 0.999988 0.999988 0.999988 0.999988 0.999988 0.999988 0.999988 0.999988 0.999988 0.999988
          0.999988 0.999988 0.999988 0.999988 0.999989 0.999989 0.999989 0.999989 0.999989 0.999989 0.999989 0.999989
          0.999989 0.999989 0.999989 0.999989 0.999989 0.999989 0.999989 0.999989 0.99999 0.99999 0.99999 0.99999
          0.99999 0.99999 0.99999 0.99999 0.99999 0.99999 0.999991 0.999991 0.999991 0.999991 0.999991 0.999991
          0.999992 0.999992 0.999992 0.999992 0.999992 0.999992 0.999993 0.999993 0.999993 0.999993 0.999994 0.999994
          0.999994 0.999994
        </DataArray>
        <DataArray type="Float32" Name="x^Air_liq" NumberOfComponents="1" format="ascii">
          6.94508e-06 7.16316e-06 6.94508e-06 7.16316e-06 7.24717e-06 7.24717e-06 7.29732e-06 7.29732e-06 7.33238e-06 7.33238e-06 7.35887e-06 7.35887e-06
          7.3798e-06 7.3798e-06 7.39681e-06 7.39681e-06 7.41088e-06 7.41088e-06 7.42265e-06 7.42265e-06 7.43258e-06 7.43258e-06 7.44099e-06 7.44099e-06
          7.44813e-06 7.44813e-06 7.45419e-06 7.45419e-06 7.45933e-06 7.45933e-06 7.46367e-06 7.46367e-06 7.46733e-06 7.46733e-06 7.4704e-06 7.4704e-06
          7.47295e-06 7.47295e-06 7.47505e-06 7.47505e-06 7.47678e-06 7.47678e-06 7.47818e-06 7.47818e-06 7.4793e-06 7.4793e-06 7.48019e-06 7.48019e-06
          7.48088e-06 7.48088e-06 7.48142e-06 7.48142e-06 7.48182e-06 7.48182e-06 7.48213e-06 7.48213e-06 7.48236e-06 7.48236e-06 7.48253e-06 7.48253e-06
          7.48267e-06 7.48267e-06 7.48279e-06 7.48279e-06 7.48291e-06 7.48291e-06 7.48303e-06 7.48303e-06 7.48317e-06 7.48317e-06 7.48333e-06 7.48333e-06
          7.48353e-06 7.48353e-06 7.48377e-06 7.48377e-06 7.48405e-06 7.48405e-06 7.48437e-06 7.48437e-06 7.48474e-06 7.48474e-06 7.48515e-06 7.48515e-06
          7.48561e-06 7.48561e-06 7.48612e-06 7.48612e-06 7.48667e-06 7.48667e-06 7.48727e-06 7.48727e-06 7.48791e-06 7.48791e-06 7.48858e-06 7.48858e-06
          7.48929e-06 7.48929e-06 7.49002e-06 7.49002e-06 7.49079e-06 7.49079e-06 7.49158e-06 7.49158e-06 7.49238e-06 7.49238e-06 7.4932e-06 7.4932e-06
          7.49403e-06 7.49403e-06 7.49486e-06 7.49486e-06 7.49568e-06 7.49568e-06 7.4965e-06 7.4965e-06 7.49731e-06 7.49731e-06 7.49809e-06 7.49809e-06
          7.49885e-06 7.49885e-06 7.49956e-06 7.49956e-06 7.50023e-06 7.50023e-06 7.50085e-06 7.50085e-06 7.5014e-06 7.5014e-06 7.50187e-06 7.50187e-06
          7.50224e-06 7.50224e-06 7.50251e-06 7.50251e-06 7.50266e-06 7.50266e-06 7.50266e-06 7.50266e-06 7.50249e-06 7.50249e-06 7.50214e-06 7.50214e-06
          7.50156e-06 7.50156e-06 7.50074e-06 7.50074e-06 7.49963e-06 7.49963e-06 7.4982e-06 7.4982e-06 7.4964e-06 7.4964e-06 7.49417e-06 7.49417e-06
          7.49147e-06 7.49147e-06 7.48823e-06 7.48823e-06 7.48438e-06 7.48438e-06 7.47983e-06 7.47983e-06 7.4745e-06 7.4745e-06 7.46829e-06 7.46829e-06
          7.46109e-06 7.46109e-06 7.45278e-06 7.45278e-06 7.44323e-06 7.44323e-06 7.43228e-06 7.43228e-06 7.41968e-06 7.41968e-06 7.40373e-06 7.40373e-06
          7.38564e-06 7.38564e-06 7.36518e-06 7.36518e-06 7.34211e-06 7.34211e-06 7.31617e-06 7.31617e-06 7.28708e-06 7.28708e-06 7.25454e-06 7.25454e-06
          7.21824e-06 7.21824e-06 7.17786e-06 7.17786e-06 7.13305e-06 7.13305e-06 7.08349e-06 7.08349e-06 7.02881e-06 7.02881e-06 6.96866e-06 6.96866e-06
          6.9027e-06 6.9027e-06 6.82721e-06 6.82721e-06 6.73923e-06 6.73923e-06 6.64359e-06 6.64359e-06 6.53996e-06 6.53996e-06 6.42803e-06 6.42803e-06
          6.30753e-06 6.30753e-06 6.17028e-06 6.17028e-06 6.01543e-06 6.01543e-06 5.85032e-06 5.85032e-06 5.67486e-06 5.67486e-06 5.47884e-06 5.47884e-06
          5.2593e-06 5.2593e-06 5.0283e-06 5.0283e-06 4.7797e-06 4.7797e-06 4.4967e-06 4.4967e-06 4.20193e-06 4.20193e-06 3.88009e-06 3.88009e-06
          3.52687e-06 3.52687e-06
        </DataArray>
        <DataArray type="Float32" Name="X^Air_liq" NumberOfComponents="1" format="ascii">
          1.11644e-05 1.1515e-05 1.11644e-05 1.1515e-05 1.165e-05 1.165e-05 1.17306e-05 1.17306e-05 1.1787e-05 1.1787e-05 1.18296e-05 1.18296e-05
          1.18632e-05 1.18632e-05 1.18906e-05 1.18906e-05 1.19132e-05 1.19132e-05 1.19321e-05 1.19321e-05 1.19481e-05 1.19481e-05 1.19616e-05 1.19616e-05
          1.19731e-05 1.19731e-05 1.19828e-05 1.19828e-05 1.19911e-05 1.19911e-05 1.1998e-05 1.1998e-05 1.20039e-05 1.20039e-05 1.20089e-05 1.20089e-05
          1.2013e-05 1.2013e-05 1.20163e-05 1.20163e-05 1.20191e-05 1.20191e-05 1.20214e-05 1.20214e-05 1.20232e-05 1.20232e-05 1.20246e-05 1.20246e-05
          1.20257e-05 1.20257e-05 1.20266e-05 1.20266e-05 1.20272e-05 1.20272e-05 1.20277e-05 1.20277e-05 1.20281e-05 1.20281e-05 1.20284e-05 1.20284e-05
          1.20286e-05 1.20286e-05 1.20288e-05 1.20288e-05 1.2029e-05 1.2029e-05 1.20292e-05 1.20292e-05 1.20294e-05 1.20294e-05 1.20297e-05 1.20297e-05
          1.203e-05 1.203e-05 1.20304e-05 1.20304e-05 1.20308e-05 1.20308e-05 1.20313e-05 1.20313e-05 1.20319e-05 1.20319e-05 1.20326e-05 1.20326e-05
          1.20333e-05 1.20333e-05 1.20341e-05 1.20341e-05 1.2035e-05 1.2035e-05 1.2036e-05 1.2036e-05 1.2037e-05 1.2037e-05 1.20381e-05 1.20381e-05
          1.20392e-05 1.20392e-05 1.20404e-05 1.20404e-05 1.20416e-05 1.20416e-05 1.20429e-05 1.20429e-05 1.20442e-05 1.20442e-05 1.20455e-05 1.20455e-05
          1.20468e-05 1.20468e-05 1.20482e-05 1.20482e-05 1.20495e-05 1.20495e-05 1.20508e-05 1.20508e-05 1.20521e-05 1.20521e-05 1.20534e-05 1.20534e-05
          1.20546e-05 1.20546e-05 1.20557e-05 1.20557e-05 1.20568e-05 1.20568e-05 1.20578e-05 1.20578e-05 1.20587e-05 1.20587e-05 1.20594e-05 1.20594e-05
          1.20601e-05 1.20601e-05 1.20605e-05 1.20605e-05 1.20607e-05 1.20607e-05 1.20607e-05 1.20607e-05 1.20604e-05 1.20604e-05 1.20599e-05 1.20599e-05
          1.2059e-05 1.2059e-05 1.20576e-05 1.20576e-05 1.20559e-05 1.20559e-05 1.20535e-05 1.20535e-05 1.20507e-05 1.20507e-05 1.20471e-05 1.20471e-05
          1.20427e-05 1.20427e-05 1.20375e-05 1.20375e-05 1.20313e-05 1.20313e-05 1.2024e-05 1.2024e-05 1.20155e-05 1.20155e-05 1.20055e-05 1.20055e-05
          1.19939e-05 1.19939e-05 1.19805e-05 1.19805e-05 1.19652e-05 1.19652e-05 1.19476e-05 1.19476e-05 1.19273e-05 1.19273e-05 1.19017e-05 1.19017e-05
          1.18726e-05 1.18726e-05 1.18397e-05 1.18397e-05 1.18026e-05 1.18026e-05 1.17609e-05 1.17609e-05 1.17142e-05 1.17142e-05 1.16619e-05 1.16619e-05
          1.16035e-05 1.16035e-05 1.15386e-05 1.15386e-05 1.14666e-05 1.14666e-05 1.13869e-05 1.13869e-05 1.1299e-05 1.1299e-05 1.12023e-05 1.12023e-05
          1.10963e-05 1.10963e-05 1.09749e-05 1.09749e-05 1.08335e-05 1.08335e-05 1.06797e-05 1.06797e-05 1.05132e-05 1.05132e-05 1.03332e-05 1.03332e-05
          1.01395e-05 1.01395e-05 9.91889e-06 9.91889e-06 9.66997e-06 9.66997e-06 9.40455e-06 9.40455e-06 9.12249e-06 9.12249e-06 8.80739e-06 8.80739e-06
          8.45447e-06 8.45447e-06 8.08313e-06 8.08313e-06 7.68351e-06 7.68351e-06 7.22857e-06 7.22857e-06 6.75472e-06 6.75472e-06 6.23736e-06 6.23736e-06
          5.66954e-06 5.66954e-06
        </DataArray>
        <DataArray type="Float32" Name="rhoMolar_liq" NumberOfComponents="1" format="ascii">
          54318.9 54318.3 54318.9 54318.3 54317.7 54317.7 54317 54317 54316.2 54316.2 54315.4 54315.4
          54314.6 54314.6 54313.7 54313.7 54312.8 54312.8 54311.8 54311.8 54310.9 54310.9 54309.9 54309.9
          54308.8 54308.8 54307.8 54307.8 54306.7 54306.7 54305.6 54305.6 54304.5 54304.5 54303.3 54303.3
          54302.2 54302.2 54301.1 54301.1 54300 54300 54298.9 54298.9 54297.8 54297.8 54296.7 54296.7
          54295.6 54295.6 54294.6 54294.6 54293.5 54293.5 54292.5 54292.5 54291.6 54291.6 54290.6 54290.6
          54289.7 54289.7 54288.9 54288.9 54288 54288 54287.2 54287.2 54286.4 54286.4 54285.7 54285.7
          54285 54285 54284.3 54284.3 54283.7 54283.7 54283.1 54283.1 54282.5 54282.5 54281.9 54281.9
          54281.4 54281.4 54280.9 54280.9 54280.5 54280.5 54280 54280 54279.6 54279.6 54279.3 54279.3
          54278.9 54278.9 54278.6 54278.6 54278.3 54278.3 54278 54278 54277.7 54277.7 54277.4 54277.4
          54277.2 54277.2 54277 54277 54276.7 54276.7 54276.5 54276.5 54276.3 54276.3 54276.1 54276.1
          54275.9 54275.9 54275.7 54275.7 54275.6 54275.6 54275.4 54275.4 54275.2 54275.2 54275 54275
          54274.7 54274.7 54274.5 54274.5 54274.3 54274.3 54274 54274 54273.7 54273.7 54273.4 54273.4
          54273 54273 54272.6 54272.6 54272.1 54272.1 54271.6 54271.6 54271 54271 54270.3 54270.3
          54269.6 54269.6 54268.7 54268.7 54267.7 54267.7 54266.5 54266.5 54265.2 54265.2 54263.7 54263.7
          54262 54262 54260.1 54260.1 54257.9 54257.9 54255.4 54255.4 54252.6 54252.6 54249.3 54249.3
          54245.6 54245.6 54241.4 54241.4 54236.7 54236.7 54231.4 54231.4 54225.5 54225.5 54218.9 54218.9
          54211.5 54211.5 54203.3 54203.3 54194.2 54194.2 54184.1 54184.1 54173 54173 54160.7 54160.7
          54147.1 54147.1 54132.1 54132.1 54115.3 54115.3 54097 54097 54077 54077 54055.4 54055.4
          54032 54032 54006.3 54006.3 53978.3 53978.3 53948.3 53948.3 53916.2 53916.2 53881.6 53881.6
          53844.3 53844.3 53804.8 53804.8 53762.8 53762.8 53717.9 53717.9 53670.8 53670.8 53621 53621
          53568.6 53568.6
        </DataArray>
        <DataArray type="Float32" Name="x^H2O_gas" NumberOfComponents="1" format="ascii">
          0.29053 0.28436 0.29053 0.28436 0.282166 0.282166 0.280955 0.280955 0.280184 0.280184 0.279663 0.279663
          0.279308 0.279308 0.279072 0.279072 0.278927 0.278927 0.278853 0.278853 0.278839 0.278839 0.278873 0.278873
          0.278949 0.278949 0.279059 0.279059 0.2792 0.2792 0.279365 0.279365 0.279552 0.279552 0.279757 0.279757
          0.279976 0.279976 0.280207 0.280207 0.280446 0.280446 0.280692 0.280692 0.280943 0.280943 0.281195 0.281195
          0.281448 0.281448 0.2817 0.2817 0.281949 0.281949 0.282194 0.282194 0.282434 0.282434 0.282668 0.282668
          0.282894 0.282894 0.283113 0.283113 0.283324 0.283324 0.283525 0.283525 0.283718 0.283718 0.283901 0.283901
          0.284074 0.284074 0.284238 0.284238 0.284392 0.284392 0.284536 0.284536 0.284671 0.284671 0.284797 0.284797
          0.284914 0.284914 0.285022 0.285022 0.285122 0.285122 0.285214 0.285214 0.285298 0.285298 0.285375 0.285375
          0.285445 0.285445 0.285508 0.285508 0.285566 0.285566 0.285619 0.285619 0.285666 0.285666 0.285709 0.285709
          0.285748 0.285748 0.285783 0.285783 0.285816 0.285816 0.285847 0.285847 0.285876 0.285876 0.285903 0.285903
          0.285931 0.285931 0.285959 0.285959 0.285988 0.285988 0.286019 0.286019 0.286053 0.286053 0.286091 0.286091
          0.286134 0.286134 0.286184 0.286184 0.286241 0.286241 0.286308 0.286308 0.286387 0.286387 0.286478 0.286478
          0.286585 0.286585 0.286711 0.286711 0.286857 0.286857 0.287028 0.287028 0.287226 0.287226 0.287457 0.287457
          0.287724 0.287724 0.288033 0.288033 0.28839 0.28839 0.288801 0.288801 0.289274 0.289274 0.289816 0.289816
          0.290437 0.290437 0.291145 0.291145 0.291954 0.291954 0.292873 0.292873 0.293927 0.293927 0.295276 0.295276
          0.2968 0.2968 0.29852 0.29852 0.300457 0.300457 0.302633 0.302633 0.305073 0.305073 0.307804 0.307804
          0.310852 0.310852 0.314247 0.314247 0.31802 0.31802 0.322202 0.322202 0.326828 0.326828 0.331932 0.331932
          0.337547 0.337547 0.344033 0.344033 0.35168 0.35168 0.360027 0.360027 0.369114 0.369114 0.378976 0.378976
          0.38965 0.38965 0.401937 0.401937 0.415934 0.415934 0.430944 0.430944 0.446988 0.446988 0.465078 0.465078
          0.485522 0.485522 0.50716 0.50716 0.530608 0.530608 0.557537 0.557537 0.585741 0.585741 0.61674 0.61674
          0.650981 0.650981
        </DataArray>
        <DataArray type="Float32" Name="X^H2O_gas" NumberOfComponents="1" format="ascii">
          0.203022 0.198191 0.203022 0.198191 0.196479 0.196479 0.195536 0.195536 0.194936 0.194936 0.194531 0.194531
          0.194255 0.194255 0.194071 0.194071 0.193958 0.193958 0.193901 0.193901 0.19389 0.19389 0.193917 0.193917
          0.193975 0.193975 0.194061 0.194061 0.194171 0.194171 0.194299 0.194299 0.194445 0.194445 0.194604 0.194604
          0.194774 0.194774 0.194954 0.194954 0.19514 0.19514 0.195332 0.195332 0.195527 0.195527 0.195723 0.195723
          0.19592 0.19592 0.196117 0.196117 0.196311 0.196311 0.196502 0.196502 0.196689 0.196689 0.196871 0.196871
          0.197048 0.197048 0.197218 0.197218 0.197382 0.197382 0.19754 0.19754 0.19769 0.19769 0.197833 0.197833
          0.197968 0.197968 0.198096 0.198096 0.198216 0.198216 0.198329 0.198329 0.198435 0.198435 0.198533 0.198533
          0.198624 0.198624 0.198709 0.198709 0.198787 0.198787 0.198858 0.198858 0.198924 0.198924 0.198984 0.198984
          0.199039 0.199039 0.199089 0.199089 0.199134 0.199134 0.199175 0.199175 0.199212 0.199212 0.199245 0.199245
          0.199276 0.199276 0.199304 0.199304 0.199329 0.199329 0.199353 0.199353 0.199376 0.199376 0.199397 0.199397
          0.199419 0.199419 0.19944 0.19944 0.199463 0.199463 0.199487 0.199487 0.199514 0.199514 0.199544 0.199544
          0.199578 0.199578 0.199616 0.199616 0.199661 0.199661 0.199714 0.199714 0.199775 0.199775 0.199847 0.199847
          0.199931 0.199931 0.200029 0.200029 0.200143 0.200143 0.200277 0.200277 0.200432 0.200432 0.200613 0.200613
          0.200822 0.200822 0.201064 0.201064 0.201344 0.201344 0.201666 0.201666 0.202037 0.202037 0.202462 0.202462
          0.202949 0.202949 0.203505 0.203505 0.20414 0.20414 0.204863 0.204863 0.205693 0.205693 0.206755 0.206755
          0.207957 0.207957 0.209315 0.209315 0.210847 0.210847 0.212572 0.212572 0.214509 0.214509 0.216682 0.216682
          0.219113 0.219113 0.221829 0.221829 0.224856 0.224856 0.228224 0.228224 0.231962 0.231962 0.236103 0.236103
          0.240682 0.240682 0.245997 0.245997 0.252304 0.252304 0.259235 0.259235 0.266839 0.266839 0.27516 0.27516
          0.284249 0.284249 0.294817 0.294817 0.306999 0.306999 0.320233 0.320233 0.334579 0.334579 0.351006 0.351006
          0.369904 0.369904 0.390298 0.390298 0.412869 0.412869 0.439417 0.439417 0.467965 0.467965 0.500258 0.500258
          0.537095 0.537095
        </DataArray>
        <DataArray type="Float32" Name="x^Air_gas" NumberOfComponents="1" format="ascii">
          0.70947 0.71564 0.70947 0.71564 0.717834 0.717834 0.719045 0.719045 0.719816 0.719816 0.720337 0.720337
          0.720692 0.720692 0.720928 0.720928 0.721073 0.721073 0.721147 0.721147 0.721161 0.721161 0.721127 0.721127
          0.721051 0.721051 0.720941 0.720941 0.7208 0.7208 0.720635 0.720635 0.720448 0.720448 0.720243 0.720243
          0.720024 0.720024 0.719793 0.719793 0.719554 0.719554 0.719308 0.719308 0.719057 0.719057 0.718805 0.718805
          0.718552 0.718552 0.7183 0.7183 0.718051 0.718051 0.717806 0.717806 0.717566 0.717566 0.717332 0.717332
          0.717106 0.717106 0.716887 0.716887 0.716676 0.716676 0.716475 0.716475 0.716282 0.716282 0.716099 0.716099
          0.715926 0.715926 0.715762 0.715762 0.715608 0.715608 0.715464 0.715464 0.715329 0.715329 0.715203 0.715203
          0.715086 0.715086 0.714978 0.714978 0.714878 0.714878 0.714786 0.714786 0.714702 0.714702 0.714625 0.714625
          0.714555 0.714555 0.714492 0.714492 0.714434 0.714434 0.714381 0.714381 0.714334 0.714334 0.714291 0.714291
          0.714252 0.714252 0.714217 0.714217 0.714184 0.714184 0.714153 0.714153 0.714125 0.714125 0.714097 0.714097
          0.714069 0.714069 0.714041 0.714041 0.714012 0.714012 0.713981 0.713981 0.713947 0.713947 0.713909 0.713909
          0.713866 0.713866 0.713816 0.713816 0.713759 0.713759 0.713692 0.713692 0.713614 0.713614 0.713522 0.713522
          0.713415 0.713415 0.713289 0.713289 0.713143 0.713143 0.712972 0.712972 0.712774 0.712774 0.712543 0.712543
          0.712276 0.712276 0.711967 0.711967 0.71161 0.71161 0.711199 0.711199 0.710726 0.710726 0.710184 0.710184
          0.709563 0.709563 0.708855 0.708855 0.708046 0.708046 0.707127 0.707127 0.706073 0.706073 0.704724 0.704724
          0.7032 0.7032 0.70148 0.70148 0.699543 0.699543 0.697367 0.697367 0.694927 0.694927 0.692196 0.692196
          0.689148 0.689148 0.685753 0.685753 0.68198 0.68198 0.677798 0.677798 0.673172 0.673172 0.668069 0.668069
          0.662453 0.662453 0.655967 0.655967 0.64832 0.64832 0.639973 0.639973 0.630886 0.630886 0.621024 0.621024
          0.61035 0.61035 0.598063 0.598063 0.584066 0.584066 0.569056 0.569056 0.553012 0.553012 0.534922 0.534922
          0.514478 0.514478 0.49284 0.49284 0.469392 0.469392 0.442463 0.442463 0.414259 0.414259 0.38326 0.38326
          0.349019 0.349019
        </DataArray>
        <DataArray type="Float32" Name="X^Air_gas" NumberOfComponents="1" format="ascii">
          0.796978 0.801809 0.796978 0.801809 0.803521 0.803521 0.804464 0.804464 0.805064 0.805064 0.805469 0.805469
          0.805745 0.805745 0.805929 0.805929 0.806042 0.806042 0.806099 0.806099 0.80611 0.80611 0.806083 0.806083
          0.806024 0.806024 0.805939 0.805939 0.805829 0.805829 0.805701 0.805701 0.805555 0.805555 0.805396 0.805396
          0.805226 0.805226 0.805046 0.805046 0.80486 0.80486 0.804668 0.804668 0.804473 0.804473 0.804277 0.804277
          0.80408 0.80408 0.803883 0.803883 0.803689 0.803689 0.803498 0.803498 0.803311 0.803311 0.803129 0.803129
          0.802952 0.802952 0.802782 0.802782 0.802617 0.802617 0.80246 0.80246 0.80231 0.80231 0.802167 0.802167
          0.802032 0.802032 0.801904 0.801904 0.801784 0.801784 0.801671 0.801671 0.801565 0.801565 0.801467 0.801467
          0.801376 0.801376 0.801291 0.801291 0.801214 0.801214 0.801142 0.801142 0.801076 0.801076 0.801016 0.801016
          0.800961 0.800961 0.800911 0.800911 0.800866 0.800866 0.800825 0.800825 0.800788 0.800788 0.800755 0.800755
          0.800724 0.800724 0.800696 0.800696 0.800671 0.800671 0.800647 0.800647 0.800624 0.800624 0.800603 0.800603
          0.800581 0.800581 0.80056 0.80056 0.800537 0.800537 0.800513 0.800513 0.800486 0.800486 0.800456 0.800456
          0.800422 0.800422 0.800384 0.800384 0.800339 0.800339 0.800286 0.800286 0.800225 0.800225 0.800153 0.800153
          0.800069 0.800069 0.799971 0.799971 0.799857 0.799857 0.799723 0.799723 0.799568 0.799568 0.799387 0.799387
          0.799178 0.799178 0.798936 0.798936 0.798656 0.798656 0.798334 0.798334 0.797963 0.797963 0.797538 0.797538
          0.797051 0.797051 0.796495 0.796495 0.79586 0.79586 0.795137 0.795137 0.794307 0.794307 0.793245 0.793245
          0.792043 0.792043 0.790685 0.790685 0.789153 0.789153 0.787428 0.787428 0.785491 0.785491 0.783318 0.783318
          0.780887 0.780887 0.778171 0.778171 0.775144 0.775144 0.771776 0.771776 0.768038 0.768038 0.763897 0.763897
          0.759318 0.759318 0.754003 0.754003 0.747696 0.747696 0.740765 0.740765 0.733161 0.733161 0.72484 0.72484
          0.715751 0.715751 0.705183 0.705183 0.693001 0.693001 0.679767 0.679767 0.665421 0.665421 0.648994 0.648994
          0.630096 0.630096 0.609702 0.609702 0.587131 0.587131 0.560583 0.560583 0.532035 0.532035 0.499742 0.499742
          0.462905 0.462905
        </DataArray>
        <DataArray type="Float32" Name="rhoMolar_gas" NumberOfComponents="1" format="ascii">
          35.7224 36.5251 35.7224 36.5251 36.8403 36.8403 37.0328 37.0328 37.171 37.171 37.2786 37.2786
          37.3665 37.3665 37.4407 37.4407 37.5047 37.5047 37.5609 37.5609 37.6108 37.6108 37.6556 37.6556
          37.6962 37.6962 37.7332 37.7332 37.767 37.767 37.7982 37.7982 37.8271 37.8271 37.8539 37.8539
          37.8788 37.8788 37.9022 37.9022 37.9241 37.9241 37.9446 37.9446 37.9641 37.9641 37.9824 37.9824
          37.9998 37.9998 38.0163 38.0163 38.032 38.032 38.0469 38.0469 38.0612 38.0612 38.0749 38.0749
          38.0881 38.0881 38.1007 38.1007 38.1128 38.1128 38.1245 38.1245 38.1357 38.1357 38.1466 38.1466
          38.1572 38.1572 38.1674 38.1674 38.1773 38.1773 38.1868 38.1868 38.1962 38.1962 38.2052 38.2052
          38.214 38.214 38.2226 38.2226 38.2309 38.2309 38.239 38.239 38.2469 38.2469 38.2546 38.2546
          38.2621 38.2621 38.2694 38.2694 38.2765 38.2765 38.2834 38.2834 38.2902 38.2902 38.2967 38.2967
          38.3031 38.3031 38.3094 38.3094 38.3154 38.3154 38.3213 38.3213 38.3271 38.3271 38.3326 38.3326
          38.338 38.338 38.3432 38.3432 38.3483 38.3483 38.3532 38.3532 38.3579 38.3579 38.3624 38.3624
          38.3667 38.3667 38.3708 38.3708 38.3748 38.3748 38.3785 38.3785 38.3819 38.3819 38.3852 38.3852
          38.3881 38.3881 38.3908 38.3908 38.3932 38.3932 38.3952 38.3952 38.3969 38.3969 38.3982 38.3982
          38.399 38.399 38.3994 38.3994 38.3993 38.3993 38.3985 38.3985 38.3972 38.3972 38.3951 38.3951
          38.3922 38.3922 38.3884 38.3884 38.3837 38.3837 38.3778 38.3778 38.3708 38.3708 38.3626 38.3626
          38.353 38.353 38.3417 38.3417 38.3287 38.3287 38.3138 38.3138 38.2967 38.2967 38.2774 38.2774
          38.2555 38.2555 38.2309 38.2309 38.2034 38.2034 38.1727 38.1727 38.1386 38.1386 38.1009 38.1009
          38.0594 38.0594 38.014 38.014 37.9648 37.9648 37.9109 37.9109 37.8523 37.8523 37.7888 37.7888
          37.7203 37.7203 37.6475 37.6475 37.57 37.57 37.487 37.487 37.3989 37.3989 37.3068 37.3068
          37.2103 37.2103 37.1089 37.1089 37.0039 37.0039 36.8963 36.8963 36.7846 36.7846 36.6716 36.6716
          36.5568 36.5568
        </DataArray>
        <DataArray type="Float32" Name="phase presence" NumberOfComponents="1" format="ascii">
          3 3 3 3 3 3 3 3 3 3 3 3
          3 3 3 3 3 3 3 3 3 3 3 3
          3 3 3 3 3 3 3 3 3 3 3 3
          3 3 3 3 3 3 3 3 3 3 3 3
          3 3 3 3 3 3 3 3 3 3 3 3
          3 3 3 3 3 3 3 3 3 3 3 3
          3 3 3 3 3 3 3 3 3 3 3 3
          3 3 3 3 3 3 3 3 3 3 3 3
          3 3 3 3 3 3 3 3 3 3 3 3
          3 3 3 3 3 3 3 3 3 3 3 3
          3 3 3 3 3 3 3 3 3 3 3 3
          3 3 3 3 3 3 3 3 3 3 3 3
          3 3 3 3 3 3 3 3 3 3 3 3
          3 3 3 3 3 3 3 3 3 3 3 3
          3 3 3 3 3 3 3 3 3 3 3 3
          3 3 3 3 3 3 3 3 3 3 3 3
          3 3 3 3 3 3 3 3 3 3 3 3
          3 3 3 3 3 3 3 3 3 3 3 3
          3 3 3 3 3 3 3 3 3 3 3 3
          3 3 3 3 3 3 3 3 3 3 3 3
          3 3
        </DataArray>
        <DataArray type="Float32" Name="T" NumberOfComponents="1" format="ascii">
          341.75 341.769 341.75 341.769 341.79 341.79 341.813 341.813 341.837 341.837 341.862 341.862
          341.888 341.888 341.916 341.916 341.945 341.945 341.975 341.975 342.007 342.007 342.039 342.039
          342.072 342.072 342.106 342.106 342.14 342.14 342.175 342.175 342.211 342.211 342.246 342.246
          342.282 342.282 342.318 342.318 342.354 342.354 342.389 342.389 342.424 342.424 342.459 342.459
          342.493 342.493 342.526 342.526 342.558 342.558 342.59 342.59 342.621 342.621 342.651 342.651
          342.68 342.68 342.708 342.708 342.735 342.735 342.76 342.76 342.785 342.785 342.809 342.809
          342.831 342.831 342.853 342.853 342.873 342.873 342.893 342.893 342.911 342.911 342.928 342.928
          342.945 342.945 342.96 342.96 342.975 342.975 342.988 342.988 343.001 343.001 343.013 343.013
          343.025 343.025 343.035 343.035 343.045 343.045 343.055 343.055 343.063 343.063 343.072 343.072
          343.079 343.079 343.087 343.087 343.094 343.094 343.101 343.101 343.107 343.107 343.113 343.113
          343.119 343.119 343.125 343.125 343.131 343.131 343.137 343.137 343.144 343.144 343.15 343.15
          343.157 343.157 343.164 343.164 343.172 343.172 343.181 343.181 343.19 343.19 343.2 343.2
          343.212 343.212 343.225 343.225 343.24 343.24 343.257 343.257 343.276 343.276 343.298 343.298
          343.322 343.322 343.35 343.35 343.383 343.383 343.419 343.419 343.461 343.461 343.509 343.509
          343.563 343.563 343.624 343.624 343.694 343.694 343.773 343.773 343.863 343.863 343.964 343.964
          344.079 344.079 344.207 344.207 344.352 344.352 344.515 344.515 344.697 344.697 344.901 344.901
          345.128 345.128 345.381 345.381 345.661 345.661 345.973 345.973 346.317 346.317 346.696 346.696
          347.114 347.114 347.572 347.572 348.073 348.073 348.62 348.62 349.216 349.216 349.862 349.862
          350.562 350.562 351.316 351.316 352.128 352.128 352.998 352.998 353.929 353.929 354.92 354.92
          355.972 355.972 357.086 357.086 358.261 358.261 359.495 359.495 360.788 360.788 362.137 362.137
          363.539 363.539
        </DataArray>
      </PointData>
      <CellData Scalars="process rank">
        <DataArray type="Float32" Name="process rank" NumberOfComponents="1" format="ascii">
          0 0 0 0 0 0 0 0 0 0 0 0
          0 0 0 0 0 0 0 0 0 0 0 0
          0 0 0 0 0 0 0 0 0 0 0 0
          0 0 0 0 0 0 0 0 0 0 0 0
          0 0 0 0 0 0 0 0 0 0 0 0
          0 0 0 0 0 0 0 0 0 0 0 0
          0 0 0 0 0 0 0 0 0 0 0 0
          0 0 0 0 0 0 0 0 0 0 0 0
          0 0 0 0 0 0 0 0 0 0 0 0
          0 0 0 0 0 0 0 0 0 0 0 0
        </DataArray>
      </CellData>
      <Points>
        <DataArray type="Float32" Name="Coordinates" NumberOfComponents="3" format="ascii">
          0 0 0 0.02 0 0 0 1 0 0.02 1 0
          0.04 0 0 0.04 1 0 0.06 0 0 0.06 1 0
          0.08 0 0 0.08 1 0 0.1 0 0 0.1 1 0
          0.12 0 0 0.12 1 0 0.14 0 0 0.14 1 0
          0.16 0 0 0.16 1 0 0.18 0 0 0.18 1 0
          0.2 0 0 0.2 1 0 0.22 0 0 0.22 1 0
          0.24 0 0 0.24 1 0 0.26 0 0 0.26 1 0
          0.28 0 0 0.28 1 0 0.3 0 0 0.3 1 0
          0.32 0 0 0.32 1 0 0.34 0 0 0.34 1 0
          0.36 0 0 0.36 1 0 0.38 0 0 0.38 1 0
          0.4 0 0 0.4 1 0 0.42 0 0 0.42 1 0
          0.44 0 0 0.44 1 0 0.46 0 0 0.46 1 0
          0.48 0 0 0.48 1 0 0.5 0 0 0.5 1 0
          0.52 0 0 0.52 1 0 0.54 0 0 0.54 1 0
          0.56 0 0 0.56 1 0 0.58 0 0 0.58 1 0
          0.6 0 0 0.6 1 0 0.62 0 0 0.62 1 0
          0.64 0 0 0.64 1 0 0.66 0 0 0.66 1 0
          0.68 0 0 0.68 1 0 0.7 0 0 0.7 1 0
          0.72 0 0 0.72 1 0 0.74 0 0 0.74 1 0
          0.76 0 0 0.76 1 0 0.78 0 0 0.78 1 0
          0.8 0 0 0.8 1 0 0.82 0 0 0.82 1 0
          0.84 0 0 0.84 1 0 0.86 0 0 0.86 1 0
          0.88 0 0 0.88 1 0 0.9 0 0 0.9 1 0
          0.92 0 0 0.92 1 0 0.94 0 0 0.94 1 0
          0.96 0 0 0.96 1 0 0.98 0 0 0.98 1 0
          1 0 0 1 1 0 1.02 0 0 1.02 1 0
          1.04 0 0 1.04 1 0 1.06 0 0 1.06 1 0
          1.08 0 0 1.08 1 0 1.1 0 0 1.1 1 0
          1.12 0 0 1.12 1 0 1.14 0 0 1.14 1 0
          1.16 0 0 1.16 1 0 1.18 0 0 1.18 1 0
          1.2 0 0 1.2 1 0 1.22 0 0 1.22 1 0
          1.24 0 0 1.24 1 0 1.26 0 0 1.26 1 0
          1.28 0 0 1.28 1 0 1.3 0 0 1.3 1 0
          1.32 0 0 1.32 1 0 1.34 0 0 1.34 1 0
          1.36 0 0 1.36 1 0 1.38 0 0 1.38 1 0
          1.4 0 0 1.4 1 0 1.42 0 0 1.42 1 0
          1.44 0 0 1.44 1 0 1.46 0 0 1.46 1 0
          1.48 0 0 1.48 1 0 1.5 0 0 1.5 1 0
          1.52 0 0 1.52 1 0 1.54 0 0 1.54 1 0
          1.56 0 0 1.56 1 0 1.58 0 0 1.58 1 0
          1.6 0 0 1.6 1 0 1.62 0 0 1.62 1 0
          1.64 0 0 1.64 1 0 1.66 0 0 1.66 1 0
          1.68 0 0 1.68 1 0 1.7 0 0 1.7 1 0
          1.72 0 0 1.72 1 0 1.74 0 0 1.74 1 0
          1.76 0 0 1.76 1 0 1.78 0 0 1.78 1 0
          1.8 0 0 1.8 1 0 1.82 0 0 1.82 1 0
          1.84 0 0 1.84 1 0 1.86 0 0 1.86 1 0
          1.88 0 0 1.88 1 0 1.9 0 0 1.9 1 0
          1.92 0 0 1.92 1 0 1.94 0 0 1.94 1 0
          1.96 0 0 1.96 1 0 1.98 0 0 1.98 1 0
          2 0 0 2 1 0 2.02 0 0 2.02 1 0
          2.04 0 0 2.04 1 0 2.06 0 0 2.06 1 0
          2.08 0 0 2.08 1 0 2.1 0 0 2.1 1 0
          2.12 0 0 2.12 1 0 2.14 0 0 2.14 1 0
          2.16 0 0 2.16 1 0 2.18 0 0 2.18 1 0
          2.2 0 0 2.2 1 0 2.22 0 0 2.22 1 0
          2.24 0 0 2.24 1 0 2.26 0 0 2.26 1 0
          2.28 0 0 2.28 1 0 2.3 0 0 2.3 1 0
          2.32 0 0 2.32 1 0 2.34 0 0 2.34 1 0
          2.36 0 0 2.36 1 0 2.38 0 0 2.38 1 0
          2.4 0 0 2.4 1 0
        </DataArray>
      </Points>
      <Cells>
        <DataArray type="Int32" Name="connectivity" NumberOfComponents="1" format="ascii">
          0 1 3 2 1 4 5 3 4 6 7 5
          6 8 9 7 8 10 11 9 10 12 13 11
          12 14 15 13 14 16 17 15 16 18 19 17
          18 20 21 19 20 22 23 21 22 24 25 23
          24 26 27 25 26 28 29 27 28 30 31 29
          30 32 33 31 32 34 35 33 34 36 37 35
          36 38 39 37 38 40 41 39 40 42 43 41
          42 44 45 43 44 46 47 45 46 48 49 47
          48 50 51 49 50 52 53 51 52 54 55 53
          54 56 57 55 56 58 59 57 58 60 61 59
          60 62 63 61 62 64 65 63 64 66 67 65
          66 68 69 67 68 70 71 69 70 72 73 71
          72 74 75 73 74 76 77 75 76 78 79 77
          78 80 81 79 80 82 83 81 82 84 85 83
          84 86 87 85 86 88 89 87 88 90 91 89
          90 92 93 91 92 94 95 93 94 96 97 95
          96 98 99 97 98 100 101 99 100 102 103 101
          102 104 105 103 104 106 107 105 106 108 109 107
          108 110 111 109 110 112 113 111 112 114 115 113
          114 116 117 115 116 118 119 117 118 120 121 119
          120 122 123 121 122 124 125 123 124 126 127 125
          126 128 129 127 128 130 131 129 130 132 133 131
          132 134 135 133 134 136 137 135 136 138 139 137
          138 140 141 139 140 142 143 141 142 144 145 143
          144 146 147 145 146 148 149 147 148 150 151 149
          150 152 153 151 152 154 155 153 154 156 157 155
          156 158 159 157 158 160 161 159 160 162 163 161
          162 164 165 163 164 166 167 165 166 168 169 167
          168 170 171 169 170 172 173 171 172 174 175 173
          174 176 177 175 176 178 179 177 178 180 181 179
          180 182 183 181 182 184 185 183 184 186 187 185
          186 188 189 187 188 190 191 189 190 192 193 191
          192 194 195 193 194 196 197 195 196 198 199 197
          198 200 201 199 200 202 203 201 202 204 205 203
          204 206 207 205 206 208 209 207 208 210 211 209
          210 212 213 211 212 214 215 213 214 216 217 215
          216 218 219 217 218 220 221 219 220 222 223 221
          222 224 225 223 224 226 227 225 226 228 229 227
          228 230 231 229 230 232 233 231 232 234 235 233
          234 236 237 235 236 238 239 237 238 240 241 239
        </DataArray>
        <DataArray type="Int32" Name="offsets" NumberOfComponents="1" format="ascii">
          4 8 12 16 20 24 28 32 36 40 44 48
          52 56 60 64 68 72 76 80 84 88 92 96
          100 104 108 112 116 120 124 128 132 136 140 144
          148 152 156 160 164 168 172 176 180 184 188 192
          196 200 204 208 212 216 220 224 228 232 236 240
          244 248 252 256 260 264 268 272 276 280 284 288
          292 296 300 304 308 312 316 320 324 328 332 336
          340 344 348 352 356 360 364 368 372 376 380 384
          388 392 396 400 404 408 412 416 420 424 428 432
          436 440 444 448 452 456 460 464 468 472 476 480
        </DataArray>
        <DataArray type="UInt8" Name="types" NumberOfComponents="1" format="ascii">
          9 9 9 9 9 9 9 9 9 9 9 9
          9 9 9 9 9 9 9 9 9 9 9 9
          9 9 9 9 9 9 9 9 9 9 9 9
          9 9 9 9 9 9 9 9 9 9 9 9
          9 9 9 9 9 9 9 9 9 9 9 9
          9 9 9 9 9 9 9 9 9 9 9 9
          9 9 9 9 9 9 9 9 9 9 9 9
          9 9 9 9 9 9 9 9 9 9 9 9
          9 9 9 9 9 9 9 9 9 9 9 9
          9 9 9 9 9 9 9 9 9 9 9 9
        </DataArray>
      </Cells>
    </Piece>
  </UnstructuredGrid>
</VTKFile>
